{
    "Nnorm": {
        "0": {
            "304014": {
                "16": 200000.0,
                "17": 200000.0,
                "18": 200000.0
            },
            "308092": {
                "16": 500423.9295511246,
                "17": 630389.0237036943,
                "18": 838458.8959590197
            },
            "308093": {
                "16": 500655.7231632471,
                "17": 630868.2068861723,
                "18": 839218.6207970381
            },
            "308094": {
                "16": 500312.36827397346,
                "17": 630369.2812553644,
                "18": 832585.9199738503
            },
            "308095": {
                "16": 999933.6436164379,
                "17": 1249872.2205278873,
                "18": 1668056.0146597624
            },
            "308096": {
                "16": 998934.5874867439,
                "17": 1248469.2044585943,
                "18": 1653295.824378252
            },
            "308097": {
                "16": 998920.5831524134,
                "17": 1247558.9945950508,
                "18": 1658057.4263932705
            },
            "308098": {
                "16": 998973.2444810867,
                "17": 1247820.230126977,
                "18": 1656625.346910596
            },
            "342284": {
                "16": 100000.0,
                "17": 100000.0,
                "18": 100000.0
            },
            "342285": {
                "16": 100000.0,
                "17": 100000.0,
                "18": 100000.0
            },
            "345120": {
                "16": 126106160.77544785,
                "17": 35420183.56699371,
                "18": 58588141.43401718
            },
            "345121": {
                "16": 59197622.13716507,
                "17": 14166125.002788544,
                "18": 14173417.349956512
            },
            "345122": {
                "16": 59532215.534957886,
                "17": 14164871.63061905,
                "18": 14173303.407032013
            },
            "345123": {
                "16": 125659504.51140976,
                "17": 35357116.15828323,
                "18": 35384006.68846512
            },
            "345705": {
                "16": 100064.61282527447,
                "17": 125056.89135038853,
                "18": 500338.10642409325
            },
            "345706": {
                "16": 989750.8683941364,
                "17": 980878.3647150993,
                "18": 993365.5451016426
            },
            "345715": {
                "16": 300292.08586633205,
                "17": 375332.0796742439,
                "18": 500394.96820271015
            },
            "345718": {
                "16": 500409.64762222767,
                "17": 630515.977244854,
                "18": 827653.4203315973
            },
            "345723": {
                "16": 100099.69094538689,
                "17": 115178.82399439812,
                "18": 170173.82785391808
            },
            "346190": {
                "16": 2995649.683831215,
                "17": 3744689.721229315,
                "18": 5243185.784718752
            },
            "346191": {
                "16": 1486581.9885296822,
                "17": 1860608.547892332,
                "18": 2591944.6276471615
            },
            "346192": {
                "16": 1483023.8363058567,
                "17": 1853319.5717988014,
                "18": 2583828.2007358074
            },
            "346193": {
                "16": 2991682.653829813,
                "17": 3740866.734210491,
                "18": 5236437.690150738
            },
            "346343": {
                "16": 1188825.7710456848,
                "17": 1549074.7723579407,
                "18": 1969241.4972782135
            },
            "346344": {
                "16": 2620873.087012768,
                "17": 3411838.4249281883,
                "18": 4288533.092157841
            },
            "346345": {
                "16": 273018.9591578543,
                "17": 355020.01412670314,
                "18": 452972.22428928316
            },
            "363355": {
                "16": 3496611.8936878867,
                "17": 3490355.3816497903,
                "18": 5795084.355500013
            },
            "363356": {
                "16": 6986120.763220449,
                "17": 3493533.427315615,
                "18": 5801154.544173778
            },
            "363357": {
                "16": 559370.390576686,
                "17": 555940.2063387908,
                "18": 928257.3438840843
            },
            "363358": {
                "16": 254404.24982877882,
                "17": 1267157.183862034,
                "18": 421986.4222877942
            },
            "363359": {
                "16": 1076338.136887888,
                "17": 5368427.076868181,
                "18": 1785302.8612444974
            },
            "363360": {
                "16": 1080428.4093693169,
                "17": 2149924.584562771,
                "18": 1787130.816855038
            },
            "363489": {
                "16": 1124506.2071727505,
                "17": 5628759.453970801,
                "18": 1873760.204523365
            },
            "363494": {
                "16": 1061536.7650401315,
                "17": 1070941.733354465,
                "18": 1761446.1659236515
            },
            "364100": {
                "16": 5372279.634035443,
                "17": 6694397.661031304,
                "18": 8937713.503903383
            },
            "364101": {
                "16": 2871991.426143632,
                "17": 3576209.4726645923,
                "18": 4779260.689438459
            },
            "364102": {
                "16": 4120985.337337699,
                "17": 4966388.580391126,
                "18": 6785027.233351991
            },
            "364103": {
                "16": 2167092.98747533,
                "17": 2718555.086884853,
                "18": 3616548.9487310313
            },
            "364104": {
                "16": 732649.3688604273,
                "17": 903553.7933675962,
                "18": 1193625.6553625725
            },
            "364105": {
                "16": 2081906.8507026234,
                "17": 2606623.1729490054,
                "18": 3470182.759133199
            },
            "364106": {
                "16": 2974677.4423907846,
                "17": 3717767.440836181,
                "18": 4926765.377287837
            },
            "364107": {
                "16": 1991382.8070098374,
                "17": 2492276.8691572575,
                "18": 3325064.0599700194
            },
            "364108": {
                "16": 8627562.50741208,
                "17": 10832962.598627793,
                "18": 14369265.861886434
            },
            "364109": {
                "16": 1728612.3106628517,
                "17": 2116907.661041661,
                "18": 2865543.427064053
            },
            "364110": {
                "16": 918652.6238898593,
                "17": 1146180.851978507,
                "18": 1532134.7532200804
            },
            "364111": {
                "16": 3750955.4604292507,
                "17": 4682988.49325211,
                "18": 6206027.251028582
            },
            "364112": {
                "16": 2980981.0847717766,
                "17": 3726071.3516857857,
                "18": 5078125.8919636775
            },
            "364113": {
                "16": 1017049.2935065031,
                "17": 1274502.3925186992,
                "18": 1622807.5293214917
            },
            "364114": {
                "16": 5374834.5381592475,
                "17": 6719936.336390967,
                "18": 8922755.629183447
            },
            "364115": {
                "16": 2873585.8339454653,
                "17": 3583084.3399960315,
                "18": 4773643.578518281
            },
            "364116": {
                "16": 4111231.8765602945,
                "17": 5139719.0523766205,
                "18": 6828461.772837692
            },
            "364117": {
                "16": 2175643.9159146384,
                "17": 2703390.2749796184,
                "18": 3636840.1963204285
            },
            "364118": {
                "16": 725129.1784837168,
                "17": 907489.6271381201,
                "18": 1209277.2607610333
            },
            "364119": {
                "16": 2097670.266009529,
                "17": 2629072.3387418776,
                "18": 3473445.120971433
            },
            "364120": {
                "16": 2999252.75601928,
                "17": 3746987.1349257333,
                "18": 5008205.8724120725
            },
            "364121": {
                "16": 2001437.9904342,
                "17": 2499537.3584880806,
                "18": 3324709.4721886097
            },
            "364122": {
                "16": 8630260.206961615,
                "17": 10893048.432270946,
                "18": 14422547.82483448
            },
            "364123": {
                "16": 1723274.1321923789,
                "17": 2152405.3165305103,
                "18": 2951207.098620827
            },
            "364124": {
                "16": 918309.6249333983,
                "17": 1147074.0964410082,
                "18": 1593731.686779689
            },
            "364125": {
                "16": 3745920.7090054187,
                "17": 4683450.878261916,
                "18": 6203356.8689828385
            },
            "364126": {
                "16": 2968711.292984709,
                "17": 3677712.001134162,
                "18": 4931233.248999037
            },
            "364127": {
                "16": 1016626.8673391342,
                "17": 1270484.9009056091,
                "18": 1697682.6607319713
            },
            "364128": {
                "16": 5376400.516368366,
                "17": 6726218.077864401,
                "18": 8933659.34816267
            },
            "364129": {
                "16": 2869561.753362089,
                "17": 3533279.3224219754,
                "18": 4770706.272553145
            },
            "364130": {
                "16": 4113202.669943255,
                "17": 5139096.833921947,
                "18": 6840714.95018834
            },
            "364131": {
                "16": 2197872.0580745935,
                "17": 2756430.0435886546,
                "18": 3659863.033386468
            },
            "364132": {
                "16": 731820.0971565559,
                "17": 903856.4301238647,
                "18": 1210611.9235096672
            },
            "364133": {
                "16": 2091196.6022394819,
                "17": 2628220.331884752,
                "18": 3494191.1817793767
            },
            "364134": {
                "16": 2961137.3953287946,
                "17": 3736560.370813339,
                "18": 4971988.860777982
            },
            "364135": {
                "16": 2003115.0031818985,
                "17": 2501431.6081469804,
                "18": 3330631.4574254896
            },
            "364136": {
                "16": 3474732.2621323634,
                "17": 4324569.813422268,
                "18": 5756855.577799028
            },
            "364137": {
                "16": 6894884.571464726,
                "17": 8621185.341270879,
                "18": 11391073.608164063
            },
            "364138": {
                "16": 918441.5953951804,
                "17": 1134138.3970906995,
                "18": 1533292.9253381998
            },
            "364139": {
                "16": 1860614.675960146,
                "17": 2343822.058156969,
                "18": 3119091.8343725484
            },
            "364140": {
                "16": 2978246.0811943,
                "17": 3723437.2357986085,
                "18": 4924814.365906587
            },
            "364141": {
                "16": 1018499.869475007,
                "17": 1272790.3731224537,
                "18": 1697836.3845854998
            },
            "364156": {
                "16": 16785168.71470382,
                "17": 20980241.344359405,
                "18": 27895275.244979307
            },
            "364157": {
                "16": 11443981.081918515,
                "17": 14018512.21338887,
                "18": 18783669.728257217
            },
            "364158": {
                "16": 10560100.514816223,
                "17": 13117409.792394074,
                "18": 17556184.346125163
            },
            "364159": {
                "16": 5484921.913130146,
                "17": 6810754.273310531,
                "18": 9078908.944649829
            },
            "364160": {
                "16": 3738706.905222511,
                "17": 4735240.230945925,
                "18": 5982080.712151471
            },
            "364161": {
                "16": 8101818.043161481,
                "17": 10253235.884133233,
                "18": 13435308.427076153
            },
            "364162": {
                "16": 6228868.057627372,
                "17": 7671615.3790172655,
                "18": 10446725.24717465
            },
            "364163": {
                "16": 9512813.56401816,
                "17": 11965900.747132776,
                "18": 15919604.40619515
            },
            "364164": {
                "16": 18538069.591997363,
                "17": 19595991.141554292,
                "18": 30799494.371978093
            },
            "364165": {
                "16": 4377783.996479254,
                "17": 5457680.329649443,
                "18": 7277644.581294473
            },
            "364166": {
                "16": 2813148.816152606,
                "17": 3511671.8329516947,
                "18": 4674392.968211839
            },
            "364167": {
                "16": 5690468.541424252,
                "17": 7222341.507014745,
                "18": 9548209.602071855
            },
            "364168": {
                "16": 6029768.4762889,
                "17": 7537845.013138175,
                "18": 9992907.446683109
            },
            "364169": {
                "16": 4108037.2884058207,
                "17": 5139989.939801931,
                "18": 6830006.32216832
            },
            "364170": {
                "16": 16816469.09174849,
                "17": 20736323.44416851,
                "18": 27922933.391909152
            },
            "364171": {
                "16": 11346656.281226454,
                "17": 14300806.525920976,
                "18": 18944848.917213388
            },
            "364172": {
                "16": 10574186.329215117,
                "17": 13216223.49473216,
                "18": 17780492.88889141
            },
            "364173": {
                "16": 5432575.28147023,
                "17": 6784959.987251207,
                "18": 9027573.022289155
            },
            "364174": {
                "16": 3763408.932425162,
                "17": 4692938.10462708,
                "18": 6280657.2259395905
            },
            "364175": {
                "16": 8055859.189683848,
                "17": 10059204.029202007,
                "18": 12497572.13053224
            },
            "364176": {
                "16": 6237897.3767531,
                "17": 7747475.009452794,
                "18": 10439078.538046408
            },
            "364177": {
                "16": 9532180.161556194,
                "17": 11980847.489329636,
                "18": 15924936.501600312
            },
            "364178": {
                "16": 18444596.02649481,
                "17": 23635888.889375016,
                "18": 30847392.897715747
            },
            "364179": {
                "16": 4378854.57303499,
                "17": 5261510.602569686,
                "18": 7264941.441024605
            },
            "364180": {
                "16": 2812898.0223151776,
                "17": 3508117.807426505,
                "18": 4670687.728153549
            },
            "364181": {
                "16": 5736039.82890144,
                "17": 7165830.816077457,
                "18": 9544165.05129439
            },
            "364182": {
                "16": 6086518.870293342,
                "17": 7526618.564320242,
                "18": 9991349.592165653
            },
            "364183": {
                "16": 4129497.201396227,
                "17": 9184610.649361491,
                "18": 6855925.394230455
            },
            "364184": {
                "16": 16817473.85231806,
                "17": 20990538.703933652,
                "18": 27946451.678580977
            },
            "364185": {
                "16": 11464848.40474852,
                "17": 14263848.900550604,
                "18": 18292698.015644453
            },
            "364186": {
                "16": 10627473.879817942,
                "17": 13265717.899374874,
                "18": 17645637.039491702
            },
            "364187": {
                "16": 5499118.517862322,
                "17": 6802154.626944303,
                "18": 9112588.057394994
            },
            "364188": {
                "16": 3774053.4622047283,
                "17": 4702516.973654157,
                "18": 6252037.079213586
            },
            "364189": {
                "16": 4052257.8572714217,
                "17": 5041654.897997695,
                "18": 10100856.101814246
            },
            "364190": {
                "16": 12395138.275631903,
                "17": 15583407.807120444,
                "18": 20678404.81602563
            },
            "364191": {
                "16": 8014602.500791654,
                "17": 9987250.23439546,
                "18": 13228423.188085832
            },
            "364192": {
                "16": 18541081.311869465,
                "17": 23634411.152638316,
                "18": 30918278.87826157
            },
            "364193": {
                "16": 6573421.249039022,
                "17": 8182831.471175313,
                "18": 10922794.906119995
            },
            "364194": {
                "16": 4215347.458305914,
                "17": 5274241.78439655,
                "18": 7017613.430834871
            },
            "364195": {
                "16": 2872639.3745916374,
                "17": 3586536.9916366264,
                "18": 4773807.250069395
            },
            "364196": {
                "16": 6000006.832679607,
                "17": 7548432.095577493,
                "18": 10032909.828870513
            },
            "364197": {
                "16": 4112672.4142978787,
                "17": 5131597.578019619,
                "18": 6819071.52256
            },
            "364198": {
                "16": 3346738.5154271275,
                "17": 7539762.05936531,
                "18": 5559184.000472615
            },
            "364199": {
                "16": 633229.5214529652,
                "17": 1426724.4282982778,
                "18": 1052101.5669952948
            },
            "364200": {
                "16": 1338520.4266057033,
                "17": 3044329.976331886,
                "18": 2242879.142321147
            },
            "364201": {
                "16": 640180.0921142846,
                "17": 1440850.7979290634,
                "18": 1074632.9758373573
            },
            "364202": {
                "16": 575003.1574845314,
                "17": 1283516.732527852,
                "18": 957837.385357976
            },
            "364203": {
                "16": 246687.90270602703,
                "17": 300008.0717076063,
                "18": 410956.8663687706
            },
            "364204": {
                "16": 3350216.474510545,
                "17": 7530848.916494516,
                "18": 5557138.076512438
            },
            "364205": {
                "16": 634977.0002092286,
                "17": 1431398.0574335735,
                "18": 1049289.970536733
            },
            "364206": {
                "16": 1355988.648283502,
                "17": 3045430.3201342244,
                "18": 2252756.8589501604
            },
            "364207": {
                "16": 641173.943863973,
                "17": 1281934.393959375,
                "18": 1066623.514770098
            },
            "364208": {
                "16": 575348.5504747629,
                "17": 1151921.8608795404,
                "18": 956408.6658139229
            },
            "364209": {
                "16": 246286.4134197235,
                "17": 492300.7906675339,
                "18": 413826.72326660156
            },
            "364210": {
                "16": 3350829.7934992807,
                "17": 6674734.3598365225,
                "18": 5526368.2127804365
            },
            "364211": {
                "16": 629985.8015463166,
                "17": 1261319.6258422546,
                "18": 1051083.6608129293
            },
            "364212": {
                "16": 1352443.6711884253,
                "17": 2708278.862685282,
                "18": 2244771.2394161634
            },
            "364213": {
                "16": 642791.9585025609,
                "17": 1283180.6496652812,
                "18": 1068484.0669243187
            },
            "364214": {
                "16": 577537.0114842653,
                "17": 720358.1547564268,
                "18": 959934.5447695255
            },
            "364215": {
                "16": 246056.02946472168,
                "17": 308227.3845384121,
                "18": 411443.3161172867
            },
            "364250": {
                "16": 7521151.75585553,
                "17": 15187889.05480874,
                "18": 10807980.257004574
            },
            "364253": {
                "16": 5362658.6039415635,
                "17": 11080036.700007066,
                "18": 9244667.94270557
            },
            "364254": {
                "16": 5115404.241318416,
                "17": 10231178.208510816,
                "18": 8486152.834101375
            },
            "364255": {
                "16": 1750458.949531676,
                "17": 3502901.9187501115,
                "18": 2909969.956448513
            },
            "364280": {
                "16": 3645738.5549486876,
                "17": 4362709.508333325,
                "18": 6064689.729497671
            },
            "364281": {
                "16": 3733150.5507457256,
                "17": 4567034.991472483,
                "18": 6141220.327858686
            },
            "364282": {
                "16": 807469.5966355801,
                "17": 997934.8591587543,
                "18": 1324249.2835885286
            },
            "364283": {
                "16": 342607.8711707592,
                "17": 441065.2297388315,
                "18": 60636875.495097876
            },
            "364284": {
                "16": 1711086.59649992,
                "17": 2178126.0673257113,
                "18": 2830976.959338546
            },
            "364285": {
                "16": 302609.96369481087,
                "17": 383023.7066938877,
                "18": 605579.7634664774
            },
            "364286": {
                "16": 996297.6028987169,
                "17": 1246704.2833693027,
                "18": 498590.6208848953
            },
            "364287": {
                "16": 100710.99061357975,
                "17": 126495.1251449585,
                "18": 1008492.4623917341
            },
            "364302": {
                "16": 249522.96225559711,
                "17": 319070.95156538486,
                "18": 417884.862519145
            },
            "364303": {
                "16": 249084.15590035915,
                "17": 320029.0848301649,
                "18": 415894.8200303316
            },
            "364304": {
                "16": 72043.11453925073,
                "17": 96645.75129145384,
                "18": 118624.20146661997
            },
            "364305": {
                "16": 76879.55476722121,
                "17": 96643.76950544119,
                "18": 127426.66525815427
            },
            "364358": {
                "16": 775913.6345018148,
                "17": 966820.478753686,
                "18": 1289019.5527813435
            },
            "364359": {
                "16": 772878.3012515903,
                "17": 967103.7827276587,
                "18": 1286460.1584812999
            },
            "364360": {
                "16": 750866.8138321042,
                "17": 938092.8950491548,
                "18": 1248138.574294448
            },
            "364361": {
                "16": 12060076.800358653,
                "17": 18923333.855679393,
                "18": 25345692.465811253
            },
            "364362": {
                "16": 11011263.100885987,
                "17": 17005227.069550037,
                "18": 22589447.835782647
            },
            "364363": {
                "16": 1990680.5021437407,
                "17": 3982353.7583658695,
                "18": 5295116.525287032
            },
            "407311": {
                "16": 49993.213176488876,
                "17": 49995.045885801315,
                "18": 50040.128276228905
            },
            "407312": {
                "16": 50194.86173629761,
                "17": 50188.96915793419,
                "18": 50126.526701927185
            },
            "407313": {
                "16": 50080.04868555069,
                "17": 50049.272108078,
                "18": 50068.7694401741
            },
            "407314": {
                "16": 50290.863520264626,
                "17": 50259.29389691353,
                "18": 49856.336027145386
            },
            "407315": {
                "16": 60053.42516374588,
                "17": 60021.73080384731,
                "18": 58088.91110277176
            },
            "407321": {
                "16": 30000.0,
                "17": 30000.0,
                "18": 30000.0
            },
            "410080": {
                "16": 200000.0,
                "17": 200000.0,
                "18": 200000.0
            },
            "410081": {
                "16": 50000.0,
                "17": 50000.0,
                "18": 50000.0
            },
            "410155": {
                "16": 4110680.752181828,
                "17": 4111925.0083904862,
                "18": 6601725.5496377945
            },
            "410156": {
                "16": 201455.29304924607,
                "17": 232220.94164696336,
                "18": 310260.3004670441
            },
            "410157": {
                "16": 1583158.6200356483,
                "17": 1585437.047315836,
                "18": 1895730.984977007
            },
            "410218": {
                "16": 52012.904244579375,
                "17": 49255.10075934976,
                "18": 79922.39313930273
            },
            "410219": {
                "16": 52021.83777882159,
                "17": 49331.13402491063,
                "18": 80098.10679871589
            },
            "410220": {
                "16": 34220.875033184886,
                "17": 32785.08994945139,
                "18": 35092.02892035991
            },
            "410408": {
                "16": 1611.9032054953277,
                "17": 1918.382265932858,
                "18": 2546.1095115616918
            },
            "410470": {
                "16": 87205814506.85889,
                "17": 109034065946.99658,
                "18": 145339943591.9115
            },
            "410471": {
                "16": 29124112160.552002,
                "17": 36401261966.79114,
                "18": 62888811224.053955
            },
            "410560": {
                "16": 43.74373485916294,
                "17": 43.73435394882108,
                "18": 57.83406007321901
            },
            "410644": {
                "16": 4056368.955808401,
                "17": 5065597.106669903,
                "18": 6699455.012125969
            },
            "410645": {
                "16": 2537965.303387642,
                "17": 3171824.083278179,
                "18": 4207585.823101759
            },
            "410646": {
                "16": 379094181.70738983,
                "17": 473547385.9976578,
                "18": 629079337.5018501
            },
            "410647": {
                "16": 379068450.2138939,
                "17": 472449817.9592819,
                "18": 627923457.9749184
            },
            "410658": {
                "16": 916561398.9353476,
                "17": 1154034678.026248,
                "18": 1541363079.0878057
            },
            "410659": {
                "16": 548747574.0492324,
                "17": 686025497.7628448,
                "18": 904317174.2673576
            }
        },
        "206": {
            "398358": {
                "16": 6894.487007766962,
                "17": 6952.164195299149,
                "18": 6973.070729285479
            },
            "398359": {
                "16": 6871.704549945891,
                "17": 6798.162341251969,
                "18": 6941.64197704196
            },
            "398360": {
                "16": 13320.854232884943,
                "17": 13401.882228910923,
				"18": 13397.591527491808
            },
            "398361": {
                "16": 25978.390616349876,
                "17": 25923.093043021858,
                "18": 25846.668405517936
            },
            "398362": {
                "16": 6796.959077164531,
                "17": 6803.37428329885,
                "18": 6816.528634175658
            },
            "398363": {
                "16": 6755.388961419463,
                "17": 6826.565245836973,
                "18": 6739.505606308579
            },
            "398364": {
                "16": 6814.192331060767,
                "17": 6735.861590027809,
                "18": 6737.66101410985
            },
            "398365": {
                "16": 13204.891226232052,
                "17": 13227.94607168436,
                "18": 13105.553397871554
            },
            "398366": {
                "16": 25650.696888804436,
                "17": 25736.064730614424,
                "18": 25725.871400654316
            },
            "398367": {
                "16": 6203.9403885006905,
                "17": 6167.644527219236,
                "18": 6169.060725167394
            },
            "398368": {
                "16": 6116.579284340143,
                "17": 6159.273931011558,
                "18": 6144.047178089619
            },
            "398369": {
                "16": 12212.242453858256,
                "17": 12173.02040503174,
                "18": 24438.926419109106
            },
            "398370": {
                "16": 24089.380208164454,
                "17": 24118.775832757354,
                "18": 24094.63038852811
            },
            "398371": {
                "16": 6127.230517178774,
                "17": 6181.748794659972,
                "18": 6216.118252031505
            },
            "398372": {
                "16": 6180.335067272186,
                "17": 6153.96945078671,
                "18": 6176.808976441622
            },
            "398373": {
                "16": 6160.519852988422,
                "17": 6129.13777564466,
                "18": 6248.943360731006
            },
            "398374": {
                "16": 12241.813584268093,
                "17": 12186.549195460975,
                "18": 12171.654707983136
            },
            "398375": {
                "16": 24194.638620331883,
                "17": 24121.143778450787,
                "18": 24146.961991786957
            }
        },
        "207": {
            "398358": {
                "16": 714.9015150666237,
                "17": 673.6587830781937,
                "18": 695.3373105823994
            },
            "398359": {
                "16": 690.6478863060474,
                "17": 689.2694206684828,
                "18": 713.9842998981476
            },
            "398360": {
                "16": 1140.3597007393837,
                "17": 1050.0594023317099,
				"18": 1032.3282444626093
            },
            "398361": {
                "16": 1443.6555775254965,
                "17": 1436.6763452738523,
                "18": 1535.6705210506916
            },
            "398362": {
                "16": 580.1641158908606,
                "17": 656.2756274938583,
                "18": 539.1881902515888
            },
            "398363": {
                "16": 586.7756249010563,
                "17": 577.5387230962515,
                "18": 567.1469839513302
            },
            "398364": {
                "16": 569.6400480121374,
                "17": 599.8344139456749,
                "18": 585.4348571747541
            },
            "398365": {
                "16": 912.1319877207279,
                "17": 919.9045322239399,
                "18": 827.8449672311544
            },
            "398366": {
                "16": 1196.8535609990358,
                "17": 1241.3856272995472,
                "18": 1168.7806861400604
            },
            "398367": {
                "16": 40.83326034247875,
                "17": 59.202928245067596,
                "18": 53.040961891412735
            },
            "398368": {
                "16": 49.670389860868454,
                "17": 46.49663156270981,
                "18": 52.39886239171028
            },
            "398369": {
                "16": 57.59418524801731,
                "17": 49.258653432130814,
                "18": 96.44029745459557
            },
            "398370": {
                "16": 53.398319095373154,
                "17": 61.027106299996376,
                "18": 69.25760805606842
            },
            "398371": {
                "16": 48.51896320283413,
                "17": 38.88996936380863,
                "18": 40.92939931154251
            },
            "398372": {
                "16": 34.866309612989426,
                "17": 42.91766783595085,
                "18": 33.02347883582115
            },
            "398373": {
                "16": 28.311212792992592,
                "17": 45.41421188414097,
                "18": 37.13709457218647
            },
            "398374": {
                "16": 48.17360582947731,
                "17": 53.237151741981506,
                "18": 48.88755214214325
            },
            "398375": {
                "16": 42.997610569000244,
                "17": 56.48936803638935,
                "18": 54.18545162677765
            }
        }
    },
    "filterEff": {
        "304014": 1.0,
        "308092": 1.0,
        "308093": 1.0,
        "308094": 1.0,
        "308095": 1.0,
        "308096": 1.0,
        "308097": 1.0,
        "308098": 1.0,
        "342284": 1.0,
        "342285": 1.0,
        "345120": 0.053756,
        "345121": 0.037749,
        "345122": 0.037826,
        "345123": 0.1889,
        "345705": 1.0,
        "345706": 1.0,
        "345715": 1.0,
        "345718": 1.0,
        "345723": 1.0,
        "346190": 0.057926,
        "346191": 0.040337,
        "346192": 0.040323,
        "346193": 0.19829,
        "346343": 1.0,
        "346344": 0.43844,
        "346345": 1.0,
        "363355": 0.27685999870300293,
        "363356": 0.14135000109672546,
        "363357": 1.0,
        "363358": 1.0,
        "363359": 1.0,
        "363360": 1.0,
        "363489": 1.0,
        "363494": 1.0,
        "364100": 0.8217499852180481,
        "364101": 0.11358000338077545,
        "364102": 0.06579700112342834,
        "364103": 0.6894800066947937,
        "364104": 0.19704000651836395,
        "364105": 0.11767999827861786,
        "364106": 0.6028100252151489,
        "364107": 0.23529000580310822,
        "364108": 0.15623000264167786,
        "364109": 0.560230016708374,
        "364110": 0.2664099931716919,
        "364111": 0.1765899956226349,
        "364112": 1.0,
        "364113": 1.0,
        "364114": 0.8213300108909607,
        "364115": 0.11386000365018845,
        "364116": 0.0657539963722229,
        "364117": 0.6942300200462341,
        "364118": 0.18854999542236328,
        "364119": 0.11827000230550766,
        "364120": 0.6161900162696838,
        "364121": 0.2329300045967102,
        "364122": 0.153329998254776,
        "364123": 0.5673900246620178,
        "364124": 0.26607999205589294,
        "364125": 0.17629000544548035,
        "364126": 1.0,
        "364127": 1.0,
        "364128": 0.8344900012016296,
        "364129": 0.10955999791622162,
        "364130": 0.06575699895620346,
        "364131": 0.6926599740982056,
        "364132": 0.19022999703884125,
        "364133": 0.11088600009679794,
        "364134": 0.6180899739265442,
        "364135": 0.2342900037765503,
        "364136": 0.15589000284671783,
        "364137": 0.5633999705314636,
        "364138": 0.2643299996852875,
        "364139": 0.176269993185997,
        "364140": 1.0,
        "364141": 1.0,
        "364156": 0.8245000243186951,
        "364157": 0.1309099942445755,
        "364158": 0.04464099928736687,
        "364159": 0.6743000149726868,
        "364160": 0.24334999918937683,
        "364161": 0.08470799773931503,
        "364162": 0.6029199957847595,
        "364163": 0.29253000020980835,
        "364164": 0.11029800027608871,
        "364165": 0.5476800203323364,
        "364166": 0.32016000151634216,
        "364167": 0.1254200041294098,
        "364168": 1.0,
        "364169": 1.0,
        "364170": 0.8246700167655945,
        "364171": 0.13086000084877014,
        "364172": 0.04481999948620796,
        "364173": 0.6748300194740295,
        "364174": 0.2441300004720688,
        "364175": 0.10340999811887741,
        "364176": 0.5987499952316284,
        "364177": 0.2887600064277649,
        "364178": 0.10898000001907349,
        "364179": 0.54830002784729,
        "364180": 0.3196899890899658,
        "364181": 0.1370600014925003,
        "364182": 1.0,
        "364183": 1.0,
        "364184": 0.8246200084686279,
        "364185": 0.13152000308036804,
        "364186": 0.045111000537872314,
        "364187": 0.6756200194358826,
        "364188": 0.24246999621391296,
        "364189": 0.10390999913215637,
        "364190": 0.5987200140953064,
        "364191": 0.28477001190185547,
        "364192": 0.10599000006914139,
        "364193": 0.5483700037002563,
        "364194": 0.31880998611450195,
        "364195": 0.13596999645233154,
        "364196": 1.0,
        "364197": 1.0,
        "364198": 0.9653599858283997,
        "364199": 0.034425001591444016,
        "364200": 0.8930799961090088,
        "364201": 0.10898999869823456,
        "364202": 0.8534799814224243,
        "364203": 0.16029000282287598,
        "364204": 0.9652000069618225,
        "364205": 0.03469499945640564,
        "364206": 0.8931400179862976,
        "364207": 0.10869999974966049,
        "364208": 0.8547300100326538,
        "364209": 0.15349000692367554,
        "364210": 0.9653900265693665,
        "364211": 0.03465300053358078,
        "364212": 0.8931599855422974,
        "364213": 0.10984999686479568,
        "364214": 0.8549200296401978,
        "364215": 0.15623000264167786,
        "364250": 1.0,
        "364253": 1.0,
        "364254": 1.0,
        "364255": 1.0,
        "364280": 1.0,
        "364281": 1.0,
        "364282": 1.0,
        "364283": 1.0,
        "364284": 1.0,
        "364285": 1.0,
        "364286": 1.0,
        "364287": 1.0,
        "364302": 0.14177000522613525,
        "364303": 0.2799000144004822,
        "364304": 1.0,
        "364305": 1.0,
        "364358": 1.0,
        "364359": 1.0,
        "364360": 1.0,
        "364361": 1.0,
        "364362": 1.0,
        "364363": 1.0,
        "398358": 0.72808,
        "398359": 0.64678,
        "398360": 0.36949,
        "398361": 0.19698,
        "398362": 0.7442,
        "398363": 0.7139,
        "398364": 0.65109,
        "398365": 0.37122,
        "398366": 0.1942,
        "398367": 0.76476,
        "398368": 0.68827,
        "398369": 0.41462,
        "398370": 0.2379,
        "398371": 0.76487,
        "398372": 0.73182,
        "398373": 0.68388,
        "398374": 0.40318,
        "398375": 0.22184,
        "407311": 1.0,
        "407312": 1.0,
        "407313": 1.0,
        "407314": 1.0,
        "407315": 1.0,
        "407321": 1.0,
        "410080": 1.0,
        "410081": 1.0,
        "410155": 1.0,
        "410156": 1.0,
        "410157": 1.0,
        "410218": 1.0,
        "410219": 1.0,
        "410220": 1.0,
        "410408": 1.0,
        "410470": 0.5438399910926819,
        "410471": 0.4562700092792511,
        "410560": 1.0,
        "410644": 1.0,
        "410645": 1.0,
        "410646": 1.0,
        "410647": 1.0,
        "410658": 1.0,
        "410659": 1.0
    },
    "kFactor": {
        "304014": 1.0,
        "308092": 1.0,
        "308093": 1.0,
        "308094": 1.0,
        "308095": 1.0,
        "308096": 1.0,
        "308097": 1.0,
        "308098": 1.0,
        "342284": 1.0,
        "342285": 1.0,
        "345120": 1.0,
        "345121": 1.0,
        "345122": 1.0,
        "345123": 1.0,
        "345705": 1.0,
        "345706": 1.0,
        "345715": 1.0,
        "345718": 1.0,
        "345723": 1.0,
        "346190": 1.0,
        "346191": 1.0,
        "346192": 1.0,
        "346193": 1.0,
        "346343": 1.0,
        "346344": 1.0,
        "346345": 1.0,
        "363355": 1.0,
        "363356": 1.0,
        "363357": 1.0,
        "363358": 1.0,
        "363359": 1.0,
        "363360": 1.0,
        "363489": 1.0,
        "363494": 1.0,
        "364100": 0.9750999808311462,
        "364101": 0.9750999808311462,
        "364102": 0.9750999808311462,
        "364103": 0.9750999808311462,
        "364104": 0.9750999808311462,
        "364105": 0.9750999808311462,
        "364106": 0.9750999808311462,
        "364107": 0.9750999808311462,
        "364108": 0.9750999808311462,
        "364109": 0.9750999808311462,
        "364110": 0.9750999808311462,
        "364111": 0.9750999808311462,
        "364112": 0.9750999808311462,
        "364113": 0.9750999808311462,
        "364114": 0.9750999808311462,
        "364115": 0.9750999808311462,
        "364116": 0.9750999808311462,
        "364117": 0.9750999808311462,
        "364118": 0.9750999808311462,
        "364119": 0.9750999808311462,
        "364120": 0.9750999808311462,
        "364121": 0.9750999808311462,
        "364122": 0.9750999808311462,
        "364123": 0.9750999808311462,
        "364124": 0.9750999808311462,
        "364125": 0.9750999808311462,
        "364126": 0.9750999808311462,
        "364127": 0.9750999808311462,
        "364128": 0.9750999808311462,
        "364129": 0.9750999808311462,
        "364130": 0.9750999808311462,
        "364131": 0.9750999808311462,
        "364132": 0.9750999808311462,
        "364133": 0.9750999808311462,
        "364134": 0.9750999808311462,
        "364135": 0.9750999808311462,
        "364136": 0.9750999808311462,
        "364137": 0.9750999808311462,
        "364138": 0.9750999808311462,
        "364139": 0.9750999808311462,
        "364140": 0.9750999808311462,
        "364141": 0.9750999808311462,
        "364156": 0.9702000021934509,
        "364157": 0.9702000021934509,
        "364158": 0.9702000021934509,
        "364159": 0.9702000021934509,
        "364160": 0.9702000021934509,
        "364161": 0.9702000021934509,
        "364162": 0.9702000021934509,
        "364163": 0.9702000021934509,
        "364164": 0.9702000021934509,
        "364165": 0.9702000021934509,
        "364166": 0.9702000021934509,
        "364167": 0.9702000021934509,
        "364168": 0.9702000021934509,
        "364169": 0.9702000021934509,
        "364170": 0.9702000021934509,
        "364171": 0.9702000021934509,
        "364172": 0.9702000021934509,
        "364173": 0.9702000021934509,
        "364174": 0.9702000021934509,
        "364175": 0.9702000021934509,
        "364176": 0.9702000021934509,
        "364177": 0.9702000021934509,
        "364178": 0.9702000021934509,
        "364179": 0.9702000021934509,
        "364180": 0.9702000021934509,
        "364181": 0.9702000021934509,
        "364182": 0.9702000021934509,
        "364183": 0.9702000021934509,
        "364184": 0.9702000021934509,
        "364185": 0.9702000021934509,
        "364186": 0.9702000021934509,
        "364187": 0.9702000021934509,
        "364188": 0.9702000021934509,
        "364189": 0.9702000021934509,
        "364190": 0.9702000021934509,
        "364191": 0.9702000021934509,
        "364192": 0.9702000021934509,
        "364193": 0.9702000021934509,
        "364194": 0.9702000021934509,
        "364195": 0.9702000021934509,
        "364196": 0.9702000021934509,
        "364197": 0.9702000021934509,
        "364198": 0.9750999808311462,
        "364199": 0.9750999808311462,
        "364200": 0.9750999808311462,
        "364201": 0.9750999808311462,
        "364202": 0.9750999808311462,
        "364203": 0.9750999808311462,
        "364204": 0.9750999808311462,
        "364205": 0.9750999808311462,
        "364206": 0.9750999808311462,
        "364207": 0.9750999808311462,
        "364208": 0.9750999808311462,
        "364209": 0.9750999808311462,
        "364210": 0.9750999808311462,
        "364211": 0.9750999808311462,
        "364212": 0.9750999808311462,
        "364213": 0.9750999808311462,
        "364214": 0.9750999808311462,
        "364215": 0.9750999808311462,
        "364250": 1.0,
        "364253": 1.0,
        "364254": 1.0,
        "364255": 1.0,
        "364280": 0.9750999808311462,
        "364281": 0.9750999808311462,
        "364282": 1.0,
        "364283": 1.0,
        "364284": 1.0,
        "364285": 1.0,
        "364286": 1.0,
        "364287": 1.0,
        "364302": 1.0,
        "364303": 1.0,
        "364304": 1.0,
        "364305": 1.0,
        "364358": 1.0,
        "364359": 1.0,
        "364360": 1.0,
        "364361": 1.0,
        "364362": 1.0,
        "364363": 1.0,
        "398358": 1.0,
        "398359": 1.0,
        "398360": 1.0,
        "398361": 1.0,
        "398362": 1.0,
        "398363": 1.0,
        "398364": 1.0,
        "398365": 1.0,
        "398366": 1.0,
        "398367": 1.0,
        "398368": 1.0,
        "398369": 1.0,
        "398370": 1.0,
        "398371": 1.0,
        "398372": 1.0,
        "398373": 1.0,
        "398374": 1.0,
        "398375": 1.0,
        "407311": 1.0,
        "407312": 1.0,
        "407313": 1.0,
        "407314": 1.0,
        "407315": 1.0,
        "407321": 1.0,
        "410080": 1.0041362047195435,
        "410081": 1.2234259843826294,
        "410155": 1.0959999561309814,
        "410156": 1.1100000143051147,
        "410157": 1.1100000143051147,
        "410218": 1.1200000047683716,
        "410219": 1.1200000047683716,
        "410220": 1.1200000047683716,
        "410408": 1.0,
        "410470": 1.1397563219070435,
        "410471": 1.1397407054901123,
        "410560": 1.0,
        "410644": 1.0169999599456787,
        "410645": 1.016700029373169,
        "410646": 0.9449999928474426,
        "410647": 0.9456999897956848,
        "410658": 1.19350004196167,
        "410659": 1.1849000453948975
    },
    "lumi": {
        "16": 36207.680256,
        "17": 44307.39456,
        "18": 58450.120704
    },
    "xSection": {
        "0": {
            "304014": 0.001639600028283894,
            "308092": 0.6314799785614014,
            "308093": 0.6352199912071228,
            "308094": 0.632830023765564,
            "308095": 2.9326999187469482,
            "308096": 6.802999973297119,
            "308097": 6.80079984664917,
            "308098": 6.798299789428711,
            "342284": 1.1021000146865845,
            "342285": 0.6007199883460999,
            "345120": 3.0469,
            "345121": 3.0469,
            "345122": 3.0469,
            "345123": 3.0469,
            "345705": 0.009957700036466122,
            "345706": 0.010162999853491783,
            "345715": 0.2685000002384186,
            "345718": 0.4823000133037567,
            "345723": 0.007105499971657991,
            "346190": 0.23721,
            "346191": 0.23721,
            "346192": 0.23721,
            "346193": 0.23721,
            "346343": 0.23844,
            "346344": 0.52458,
            "346345": 0.054667,
            "363355": 15.5600004196167,
            "363356": 15.562999725341797,
            "363357": 6.795100212097168,
            "363358": 3.432800054550171,
            "363359": 24.707000732421875,
            "363360": 24.72599983215332,
            "363489": 11.418999671936035,
            "363494": 0.6029300093650818,
            "364100": 1982.4000244140625,
            "364101": 1982.0999755859375,
            "364102": 1981.5,
            "364103": 109.12999725341797,
            "364104": 108.80999755859375,
            "364105": 108.9800033569336,
            "364106": 39.87300109863281,
            "364107": 39.86000061035156,
            "364108": 39.89099884033203,
            "364109": 8.52560043334961,
            "364110": 8.525899887084961,
            "364111": 8.527400016784668,
            "364112": 1.7870999574661255,
            "364113": 0.147599995136261,
            "364114": 1981.5999755859375,
            "364115": 1981.5,
            "364116": 1982.0999755859375,
            "364117": 110.6500015258789,
            "364118": 110.5,
            "364119": 110.45999908447266,
            "364120": 40.67900085449219,
            "364121": 40.67100143432617,
            "364122": 40.67399978637695,
            "364123": 8.670100212097168,
            "364124": 8.668899536132813,
            "364125": 8.6806001663208,
            "364126": 1.8092000484466553,
            "364127": 0.14875000715255737,
            "364128": 1981.699951171875,
            "364129": 1981.699951171875,
            "364130": 1982.0999755859375,
            "364131": 110.61000061035156,
            "364132": 110.55999755859375,
            "364133": 110.66000366210938,
            "364134": 40.770999908447266,
            "364135": 40.715999603271484,
            "364136": 40.74100112915039,
            "364137": 8.663900375366211,
            "364138": 8.675999641418457,
            "364139": 8.679400444030762,
            "364140": 1.8075000047683716,
            "364141": 0.1482599973678589,
            "364156": 19149.0,
            "364157": 19142.0,
            "364158": 19138.0,
            "364159": 945.52001953125,
            "364160": 945.4400024414063,
            "364161": 944.1400146484375,
            "364162": 339.70001220703125,
            "364163": 339.8800048828125,
            "364164": 339.6400146484375,
            "364165": 72.0790023803711,
            "364166": 72.0999984741211,
            "364167": 72.05799865722656,
            "364168": 15.005999565124512,
            "364169": 1.2347999811172485,
            "364170": 19153.0,
            "364171": 19145.0,
            "364172": 19138.0,
            "364173": 944.97998046875,
            "364174": 945.739990234375,
            "364175": 945.780029296875,
            "364176": 339.6700134277344,
            "364177": 339.8699951171875,
            "364178": 339.6400146484375,
            "364179": 72.0739974975586,
            "364180": 72.1050033569336,
            "364181": 72.09100341796875,
            "364182": 15.04699993133545,
            "364183": 1.2344000339508057,
            "364184": 19155.0,
            "364185": 19149.0,
            "364186": 19148.0,
            "364187": 945.02001953125,
            "364188": 946.22998046875,
            "364189": 945.7100219726563,
            "364190": 339.7799987792969,
            "364191": 339.6600036621094,
            "364192": 339.3500061035156,
            "364193": 72.09100341796875,
            "364194": 71.99400329589844,
            "364195": 71.94499969482422,
            "364196": 15.052000045776367,
            "364197": 1.2340999841690063,
            "364198": 2414.300048828125,
            "364199": 2414.39990234375,
            "364200": 50.33000183105469,
            "364201": 50.27399826049805,
            "364202": 3.2385001182556152,
            "364203": 3.2818000316619873,
            "364204": 2415.300048828125,
            "364205": 2415.5,
            "364206": 50.33000183105469,
            "364207": 50.483001708984375,
            "364208": 3.2544000148773193,
            "364209": 3.251199960708618,
            "364210": 2415.300048828125,
            "364211": 2414.300048828125,
            "364212": 50.40800094604492,
            "364213": 50.470001220703125,
            "364214": 3.2836999893188477,
            "364215": 3.2802999019622803,
            "364250": 1.2519999742507935,
            "364253": 4.576499938964844,
            "364254": 12.50100040435791,
            "364255": 3.2344000339508057,
            "364280": 46.04100036621094,
            "364281": 36.39099884033203,
            "364282": 9.137800216674805,
            "364283": 0.010545000433921814,
            "364284": 0.047168001532554626,
            "364285": 0.11629000306129456,
            "364286": 0.025210000574588776,
            "364287": 0.04084699973464012,
            "364302": 0.9229999780654907,
            "364303": 0.9246900081634521,
            "364304": 0.6223999857902527,
            "364305": 0.6225299835205078,
            "364358": 568.5399780273438,
            "364359": 458.510009765625,
            "364360": 140.7100067138672,
            "364361": 206.80999755859375,
            "364362": 163.9600067138672,
            "364363": 43.26499938964844,
            "407311": 0.00010250000195810571,
            "407312": 0.0005676299915648997,
            "407313": 0.004365100059658289,
            "407314": 0.015773000195622444,
            "407315": 0.005808699876070023,
            "407321": 0.00026641000295057893,
            "410080": 0.0091626001521945,
            "410081": 0.008095200173556805,
            "410155": 0.54830002784729,
            "410156": 0.15499000251293182,
            "410157": 0.5280900001525879,
            "410218": 0.0368649996817112,
            "410219": 0.03686799854040146,
            "410220": 0.0365150012075901,
            "410408": 0.01604600064456463,
            "410470": 729.77001953125,
            "410471": 729.780029296875,
            "410560": 0.2404100000858307,
            "410644": 2.0269999504089355,
            "410645": 1.2674000263214111,
            "410646": 37.93600082397461,
            "410647": 37.904998779296875,
            "410658": 36.99599838256836,
            "410659": 22.174999237060547
        },
        "206": {
            "398358": 0.019610000890679657,
            "398359": 0.01926000004459638,
            "398360": 0.019330000213813037,
            "398361": 0.01945000076375436,
            "398362": 0.016379999578930438,
            "398363": 0.016089999917312525,
            "398364": 0.016230000255745836,
            "398365": 0.016260000847978517,
            "398366": 0.01616000008652918,
            "398367": 0.014649999684479553,
            "398368": 0.014760000340174884,
            "398369": 0.014760000340174884,
            "398370": 0.014719999853696208,
            "398371": 0.01308999981119996,
            "398372": 0.013150000086170621,
            "398373": 0.013109999599691946,
            "398374": 0.013050000234215986,
            "398375": 0.013040000339969993
        },
        "207": {
            "398358": 0.002136999910362647,
            "398359": 0.0020810000478377333,
            "398360": 0.0020980000954295974,
            "398361": 0.0021129999367985874,
            "398362": 0.0013919999446443398,
            "398363": 0.0014199999895936344,
            "398364": 0.001401999952577171,
            "398365": 0.0014099999816608033,
            "398366": 0.001421999968442833,
            "398367": 0.00013529999876027432,
            "398368": 0.0001349999934063817,
            "398369": 0.0001349999934063817,
            "398370": 0.00013390000219715148,
            "398371": 9.066999950846366e-05,
            "398372": 9.037999859629053e-05,
            "398373": 9.063000305786773e-05,
            "398374": 8.920000027501374e-05,
            "398375": 8.936999762454434e-05
        }
    }
}
