%!PS-Adobe-2.0 EPSF-2.0
%%BoundingBox:  0 0 567 407
%%Title: Truth_taueta.eps: Truth_taueta
%%Creator: ROOT Version 6.18/04
%%CreationDate: Mon Sep  7 21:25:04 2020
%%DocumentNeededResources: ProcSet (FontSetInit)
%%EndComments
%%BeginProlog
80 dict begin
/s {stroke} def /l {lineto} def /m {moveto} def /t {translate} def
/r {rotate} def /rl {roll}  def /R {repeat} def
/d {rlineto} def /rm {rmoveto} def /gr {grestore} def /f {eofill} def
/c {setrgbcolor} def /black {0 setgray} def /sd {setdash} def
/cl {closepath} def /sf {scalefont setfont} def /lw {setlinewidth} def
/box {m dup 0 exch d exch 0 d 0 exch neg d cl} def
/NC{systemdict begin initclip end}def/C{NC box clip newpath}def
/bl {box s} def /bf {gsave box gsave f grestore 1 lw [] 0 sd s grestore} def /Y { 0 exch d} def /X { 0 d} def 
/K {{pop pop 0 moveto} exch kshow} bind def
/ita {/ang 15 def gsave [1 0 ang dup sin exch cos div 1 0 0] concat} def 
/mp {newpath /y exch def /x exch def} def
/side {[w .77 mul w .23 mul] .385 w mul sd w 0 l currentpoint t -144 r} def
/mr {mp x y w2 0 360 arc} def /m24 {mr s} def /m20 {mr f} def
/mb {mp x y w2 add m w2 neg 0 d 0 w neg d w 0 d 0 w d cl} def
/mt {mp x y w2 add m w2 neg w neg d w 0 d cl} def
/w4 {w 4 div} def
/w6 {w 6 div} def
/w8 {w 8 div} def
/m21 {mb f} def /m25 {mb s} def /m22 {mt f} def /m26{mt s} def
/m23 {mp x y w2 sub m w2 w d w neg 0 d cl f} def
/m27 {mp x y w2 add m w3 neg w2 neg d w3 w2 neg d w3 w2 d cl s} def
/m28 {mp x w2 sub y w2 sub w3 add m w3 0 d  0 w3 neg d w3 0 d 0 w3 d w3 0 d  0 w3 d w3 neg 0 d 0 w3 d w3 neg 0 d 0 w3 neg d w3 neg 0 d cl s } def
/m29 {mp gsave x w2 sub y w2 add w3 sub m currentpoint t 4 {side} repeat cl fill gr} def
/m30 {mp gsave x w2 sub y w2 add w3 sub m currentpoint t 4 {side} repeat cl s gr} def
/m31 {mp x y w2 sub m 0 w d x w2 sub y m w 0 d x w2 sub y w2 add m w w neg d x w2 sub y w2 sub m w w d s} def
/m32 {mp x y w2 sub m w2 w d w neg 0 d cl s} def
/m33 {mp x y w2 add m w3 neg w2 neg d w3 w2 neg d w3 w2 d cl f} def
/m34 {mp x w2 sub y w2 sub w3 add m w3 0 d  0 w3 neg d w3 0 d 0 w3 d w3 0 d  0 w3 d w3 neg 0 d 0 w3 d w3 neg 0 d 0 w3 neg d w3 neg 0 d cl f } def
/m35 {mp x y w2 add m w2 neg w2 neg d w2 w2 neg d w2 w2 d w2 neg w2 d x y w2 sub m 0 w d x w2 sub y m w 0 d s} def
/m36 {mb x w2 sub y w2 add m w w neg d x w2 sub y w2 sub m w w d s} def
/m37 {mp x y m w4 neg w2 d w4 neg w2 neg d w2 0 d  w4 neg w2 neg d w2 0 d w4 neg w2 d w2 0 d w4 neg w2 d w4 neg w2 neg d cl s} def
/m38 {mp x w4 sub y w2 add m w4 neg w4 neg d 0 w2 neg d w4 w4 neg d w2 0 d w4 w4 d 0 w2 d w4 neg w4 d w2 neg 0 d x y w2 sub m 0 w d x w2 sub y m w 0 d cl s} def
/m39 {mp x y m w4 neg w2 d w4 neg w2 neg d w2 0 d  w4 neg w2 neg d w2 0 d w4 neg w2 d w2 0 d w4 neg w2 d w4 neg w2 neg d cl f} def
/m40 {mp x y m w4 w2 d w4 w4 neg d w2 neg w4 neg d w2 w4 neg d w4 neg w4 neg d w4 neg w2 d w4 neg w2 neg d w4 neg w4 d w2 w4 d w2 neg w4 d w4 w4 d w4 w2 neg d cl s} def
/m41 {mp x y m w4 w2 d w4 w4 neg d w2 neg w4 neg d w2 w4 neg d w4 neg w4 neg d w4 neg w2 d w4 neg w2 neg d w4 neg w4 d w2 w4 d w2 neg w4 d w4 w4 d w4 w2 neg d cl f} def
/m42 {mp x y w2 add m w8 neg w2 -3 4 div mul d w2 -3 4 div mul w8 neg d w2 3 4 div mul w8 neg d w8 w2 -3 4 div mul d w8 w2 3 4 div mul d w2 3 4 div mul w8 d w2 -3 4 div mul w8 d w8 neg w2 3 4 div mul d cl s} def
/m43 {mp x y w2 add m w8 neg w2 -3 4 div mul d w2 -3 4 div mul w8 neg d w2 3 4 div mul w8 neg d w8 w2 -3 4 div mul d w8 w2 3 4 div mul d w2 3 4 div mul w8 d w2 -3 4 div mul w8 d w8 neg w2 3 4 div mul d cl f} def
/m44 {mp x y m w6 neg w2 d w2 2 3 div mul 0 d w6 neg w2 neg d w2 w6 d 0 w2 -2 3 div mul d w2 neg w6 d w6 w2 neg d w2 -2 3 div mul 0 d w6 w2 d w2 neg w6 neg d 0 w2 2 3 div mul d w2 w6 neg d cl s} def
/m45 {mp x y m w6 neg w2 d w2 2 3 div mul 0 d w6 neg w2 neg d w2 w6 d 0 w2 -2 3 div mul d w2 neg w6 d w6 w2 neg d w2 -2 3 div mul 0 d w6 w2 d w2 neg w6 neg d 0 w2 2 3 div mul d w2 w6 neg d cl f} def
/m46 {mp x y w4 add m w4 neg w4 d w4 neg w4 neg d  w4 w4 neg d w4 neg w4 neg d w4 w4 neg d w4 w4 d w4 w4 neg d w4 w4 d w4 neg w4 d w4 w4 d w4 neg w4 d w4 neg w4 neg d cl s} def
/m47 {mp x y w4 add m w4 neg w4 d w4 neg w4 neg d w4 w4 neg d w4 neg w4 neg d  w4 w4 neg d w4 w4 d w4 w4 neg d w4 w4 d w4 neg w4 d w4 w4 d w4 neg w4 d w4 neg w4 neg d cl f} def
/m48 {mp x y w4 add m w4 neg w4 d w4 neg w4 neg d w4 w4 neg d  w4 neg w4 neg d w4 w4 neg d w4 w4 d w4 w4 neg d w4 w4 d w4 neg w4 d w4 w4 d w4 neg w4 d w4 neg w4 neg d  w4 w4 neg d w4 neg w4 neg d w4 neg w4 d w4 w4 d cl f} def
/m49 {mp x w2 sub w3 add y w2 sub w3 add m  0 w3 neg d w3 0 d 0 w3 d w3 0 d 0 w3 d w3 neg 0 d 0 w3 d w3 neg 0 d 0 w3 neg d w3 neg 0 d 0 w3 neg d w3 0 d 0 w3 d w3 0 d 0 w3 neg d w3 neg 0 d cl f } def
/m2 {mp x y w2 sub m 0 w d x w2 sub y m w 0 d s} def
/m5 {mp x w2 sub y w2 sub m w w d x w2 sub y w2 add m w w neg d s} def
%%IncludeResource: ProcSet (FontSetInit)
%%IncludeResource: font Times-Roman
%%IncludeResource: font Times-Italic
%%IncludeResource: font Times-Bold
%%IncludeResource: font Times-BoldItalic
%%IncludeResource: font Helvetica
%%IncludeResource: font Helvetica-Oblique
%%IncludeResource: font Helvetica-Bold
%%IncludeResource: font Helvetica-BoldOblique
%%IncludeResource: font Courier
%%IncludeResource: font Courier-Oblique
%%IncludeResource: font Courier-Bold
%%IncludeResource: font Courier-BoldOblique
%%IncludeResource: font Symbol
%%IncludeResource: font ZapfDingbats
/reEncode {exch findfont dup length dict begin {1 index /FID eq  {pop pop} {def} ifelse } forall /Encoding exch def currentdict end dup /FontName get exch definefont pop } def [/Times-Bold /Times-Italic /Times-BoldItalic /Helvetica /Helvetica-Oblique
 /Helvetica-Bold /Helvetica-BoldOblique /Courier /Courier-Oblique /Courier-Bold /Courier-BoldOblique /Times-Roman /AvantGarde-Book /AvantGarde-BookOblique /AvantGarde-Demi /AvantGarde-DemiOblique /Bookman-Demi /Bookman-DemiItalic /Bookman-Light
 /Bookman-LightItalic /Helvetica-Narrow /Helvetica-Narrow-Bold /Helvetica-Narrow-BoldOblique /Helvetica-Narrow-Oblique /NewCenturySchlbk-Roman /NewCenturySchlbk-Bold /NewCenturySchlbk-BoldItalic /NewCenturySchlbk-Italic /Palatino-Bold
 /Palatino-BoldItalic /Palatino-Italic /Palatino-Roman ] {ISOLatin1Encoding reEncode } forall
%%EndProlog
%%BeginSetup
%%EndSetup
newpath  gsave  .25 .25 scale  gsave  0 0 t black[  ] 0 sd 3 lw 1 1 1 c 2268 1630 0 0 bf black 1 1 1 c 2266 1239 2 391 bf black 1 1 1 c 1926 1148 274 469 bf black 1926 1148 274 469 bl 1 1 1 c 1926 1148 274 469 bf black 1926 1148 274 469 bl 0.6 0.2
 0.4 c 6 lw 1 1 1 c 0.6 0.2 0.4 c 274 1100 m 39 X 119 Y 38 X 1 Y 39 X -7 Y 38 X -1 Y 77 X 5 Y 39 X 4 Y 38 X -2 Y 39 X -85 Y 38 X -665 Y 39 X 587 Y 38 X 180 Y 39 X 11 Y 38 X -4 Y 39 X -2 Y 38 X 8 Y 39 X 14 Y 38 X 4 Y 39 X 1 Y 38 X -1 Y 39 X -2 Y 38 X
 -9 Y 39 X -3 Y 38 X -3 Y 39 X -1 Y 38 X 7 Y 39 X -1 Y 38 X -1 Y 39 X 10 Y 39 X 11 Y 38 X -3 Y 39 X -10 Y 38 X -5 Y 39 X -9 Y 38 X -6 Y 39 X 9 Y 38 X -12 Y 39 X -191 Y 38 X -579 Y 39 X 678 Y 38 X 78 Y 39 X 5 Y 38 X -8 Y 39 X -9 Y 38 X -1 Y 39 X 4 Y
 38 X 2 Y 39 X 3 Y 38 X -130 Y 39 X -622 Y s black 3 lw 274 469 m 1926 X s 274 501 m -32 Y s 313 485 m -16 Y s 351 485 m -16 Y s 390 485 m -16 Y s 428 485 m -16 Y s 467 501 m -32 Y s 505 485 m -16 Y s 544 485 m -16 Y s 582 485 m -16 Y s 621 485 m -16
 Y s 659 501 m -32 Y s 698 485 m -16 Y s 736 485 m -16 Y s 775 485 m -16 Y s 813 485 m -16 Y s 852 501 m -32 Y s 890 485 m -16 Y s 929 485 m -16 Y s 967 485 m -16 Y s 1006 485 m -16 Y s 1044 501 m -32 Y s 1083 485 m -16 Y s 1121 485 m -16 Y s 1160
 485 m -16 Y s 1198 485 m -16 Y s 1237 501 m -32 Y s 1275 485 m -16 Y s 1314 485 m -16 Y s 1352 485 m -16 Y s 1391 485 m -16 Y s 1430 501 m -32 Y s 1468 485 m -16 Y s 1507 485 m -16 Y s 1545 485 m -16 Y s 1584 485 m -16 Y s 1622 501 m -32 Y s 1661
 485 m -16 Y s 1699 485 m -16 Y s 1738 485 m -16 Y s 1776 485 m -16 Y s 1815 501 m -32 Y s 1853 485 m -16 Y s 1892 485 m -16 Y s 1930 485 m -16 Y s 1969 485 m -16 Y s 2007 501 m -32 Y s 2046 485 m -16 Y s 2084 485 m -16 Y s 2123 485 m -16 Y s 2161
 485 m -16 Y s 2200 501 m -32 Y s 2200 501 m -32 Y s 274 1617 m 1926 X s 274 1586 m 31 Y s 313 1601 m 16 Y s 351 1601 m 16 Y s 390 1601 m 16 Y s 428 1601 m 16 Y s 467 1586 m 31 Y s 505 1601 m 16 Y s 544 1601 m 16 Y s 582 1601 m 16 Y s 621 1601 m 16 Y
 s 659 1586 m 31 Y s 698 1601 m 16 Y s 736 1601 m 16 Y s 775 1601 m 16 Y s 813 1601 m 16 Y s 852 1586 m 31 Y s 890 1601 m 16 Y s 929 1601 m 16 Y s 967 1601 m 16 Y s 1006 1601 m 16 Y s 1044 1586 m 31 Y s 1083 1601 m 16 Y s 1121 1601 m 16 Y s 1160 1601
 m 16 Y s 1198 1601 m 16 Y s 1237 1586 m 31 Y s 1275 1601 m 16 Y s 1314 1601 m 16 Y s 1352 1601 m 16 Y s 1391 1601 m 16 Y s 1430 1586 m 31 Y s 1468 1601 m 16 Y s 1507 1601 m 16 Y s 1545 1601 m 16 Y s 1584 1601 m 16 Y s 1622 1586 m 31 Y s 1661 1601 m
 16 Y s 1699 1601 m 16 Y s 1738 1601 m 16 Y s 1776 1601 m 16 Y s 1815 1586 m 31 Y s 1853 1601 m 16 Y s 1892 1601 m 16 Y s 1930 1601 m 16 Y s 1969 1601 m 16 Y s 2007 1586 m 31 Y s 2046 1601 m 16 Y s 2084 1601 m 16 Y s 2123 1601 m 16 Y s 2161 1601 m 16
 Y s 2200 1586 m 31 Y s 2200 1586 m 31 Y s 274 469 m 1148 Y s 337 469 m -63 X s 306 513 m -32 X s 306 557 m -32 X s 306 602 m -32 X s 337 646 m -63 X s 306 690 m -32 X s 306 734 m -32 X s 306 778 m -32 X s 337 822 m -63 X s 306 867 m -32 X s 306 911
 m -32 X s 306 955 m -32 X s 337 999 m -63 X s 306 1043 m -32 X s 306 1087 m -32 X s 306 1131 m -32 X s 337 1176 m -63 X s 306 1220 m -32 X s 306 1264 m -32 X s 306 1308 m -32 X s 337 1352 m -63 X s 306 1396 m -32 X s 306 1441 m -32 X s 306 1485 m
 -32 X s 337 1529 m -63 X s 337 1529 m -63 X s 306 1573 m -32 X s
 gsave  2266 1239 2 391 C 219.365 441.578 t 0 r /Helvetica findfont 79.9013 sf 0 0 m (0) show NC gr 
 gsave  2266 1239 2 391 C 153.84 618.209 t 0 r /Helvetica findfont 79.9013 sf 0 0 m (0.2) show NC gr 
 gsave  2266 1239 2 391 C 153.84 794.84 t 0 r /Helvetica findfont 79.9013 sf 0 0 m (0.4) show NC gr 
 gsave  2266 1239 2 391 C 153.84 971.472 t 0 r /Helvetica findfont 79.9013 sf 0 0 m (0.6) show NC gr 
 gsave  2266 1239 2 391 C 153.84 1148.1 t 0 r /Helvetica findfont 79.9013 sf 0 0 m (0.8) show NC gr 
 gsave  2266 1239 2 391 C 233.609 1321.89 t 0 r /Helvetica findfont 79.9013 sf 0 0 m (1) show NC gr 
 gsave  2266 1239 2 391 C 153.84 1498.52 t 0 r /Helvetica findfont 79.9013 sf 0 0 m (1.2) show NC gr 
 gsave  2266 1239 2 391 C 65.5245 1076.88 t 90 r /Helvetica findfont 79.9013 sf 0 0 m (Reco efficiency) show NC gr  2200 469 m 1148 Y s 2137 469 m 63 X s 2168 513 m 32 X s 2168 557 m 32 X s 2168 602 m 32 X s 2137 646 m 63 X s 2168 690 m 32 X s 2168
 734 m 32 X s 2168 778 m 32 X s 2137 822 m 63 X s 2168 867 m 32 X s 2168 911 m 32 X s 2168 955 m 32 X s 2137 999 m 63 X s 2168 1043 m 32 X s 2168 1087 m 32 X s 2168 1131 m 32 X s 2137 1176 m 63 X s 2168 1220 m 32 X s 2168 1264 m 32 X s 2168 1308 m 32
 X s 2137 1352 m 63 X s 2168 1396 m 32 X s 2168 1441 m 32 X s 2168 1485 m 32 X s 2137 1529 m 63 X s 2137 1529 m 63 X s 2168 1573 m 32 X s 1 0.6 0.2 c 6 lw 1 1 1 c 1 0.6 0.2 c 274 1102 m 39 X 132 Y 38 X 3 Y 77 X 1 Y 39 X -1 Y 38 X -1 Y 39 X -5 Y 38 X
 -8 Y 39 X -54 Y 38 X -700 Y 39 X 622 Y 38 X 137 Y 39 X 8 Y 115 X 3 Y 39 X 2 Y 38 X 2 Y 39 X 4 Y 38 X 1 Y 116 X 2 Y 38 X -2 Y 77 X 1 Y 39 X -3 Y 38 X -2 Y 39 X 1 Y 39 X 1 Y 38 X -2 Y 39 X -3 Y 38 X -2 Y 39 X -3 Y 38 X 2 Y 39 X 2 Y 38 X -11 Y 39 X
 -138 Y 38 X -622 Y 39 X 703 Y 38 X 52 Y 39 X 9 Y 38 X 3 Y 116 X 2 Y 77 X -3 Y 38 X -133 Y 39 X -633 Y s 1 1 1 c 3 lw 838 173 1248 1419 bf black
 gsave  2266 1239 2 391 C 1350.37 1489.97 t 0 r /Helvetica findfont 57.0723 sf 0 0 m (LCTopo) show NC gr  0.6 0.2 0.4 c 6 lw 1264 1506 m 73 X s 3 lw /w 28 def /w2 {w 2 div} def /w3 {w 3 div} def 1301 1506 m20 6 lw black
 gsave  2266 1239 2 391 C 1740.67 1484.27 t 0 r /Helvetica findfont 57.0723 sf 0 0 m (EMPFlow) show NC gr  1 0.6 0.2 c 1653 1506 m 73 X s 3 lw 1690 1506 m20 6 lw black 3 lw 274 469 m 1926 X s 274 501 m -32 Y s 313 485 m -16 Y s 351 485 m -16 Y s 390
 485 m -16 Y s 428 485 m -16 Y s 467 501 m -32 Y s 505 485 m -16 Y s 544 485 m -16 Y s 582 485 m -16 Y s 621 485 m -16 Y s 659 501 m -32 Y s 698 485 m -16 Y s 736 485 m -16 Y s 775 485 m -16 Y s 813 485 m -16 Y s 852 501 m -32 Y s 890 485 m -16 Y s
 929 485 m -16 Y s 967 485 m -16 Y s 1006 485 m -16 Y s 1044 501 m -32 Y s 1083 485 m -16 Y s 1121 485 m -16 Y s 1160 485 m -16 Y s 1198 485 m -16 Y s 1237 501 m -32 Y s 1275 485 m -16 Y s 1314 485 m -16 Y s 1352 485 m -16 Y s 1391 485 m -16 Y s 1430
 501 m -32 Y s 1468 485 m -16 Y s 1507 485 m -16 Y s 1545 485 m -16 Y s 1584 485 m -16 Y s 1622 501 m -32 Y s 1661 485 m -16 Y s 1699 485 m -16 Y s 1738 485 m -16 Y s 1776 485 m -16 Y s 1815 501 m -32 Y s 1853 485 m -16 Y s 1892 485 m -16 Y s 1930
 485 m -16 Y s 1969 485 m -16 Y s 2007 501 m -32 Y s 2046 485 m -16 Y s 2084 485 m -16 Y s 2123 485 m -16 Y s 2161 485 m -16 Y s 2200 501 m -32 Y s 2200 501 m -32 Y s 274 1617 m 1926 X s 274 1586 m 31 Y s 313 1601 m 16 Y s 351 1601 m 16 Y s 390 1601
 m 16 Y s 428 1601 m 16 Y s 467 1586 m 31 Y s 505 1601 m 16 Y s 544 1601 m 16 Y s 582 1601 m 16 Y s 621 1601 m 16 Y s 659 1586 m 31 Y s 698 1601 m 16 Y s 736 1601 m 16 Y s 775 1601 m 16 Y s 813 1601 m 16 Y s 852 1586 m 31 Y s 890 1601 m 16 Y s 929
 1601 m 16 Y s 967 1601 m 16 Y s 1006 1601 m 16 Y s 1044 1586 m 31 Y s 1083 1601 m 16 Y s 1121 1601 m 16 Y s 1160 1601 m 16 Y s 1198 1601 m 16 Y s 1237 1586 m 31 Y s 1275 1601 m 16 Y s 1314 1601 m 16 Y s 1352 1601 m 16 Y s 1391 1601 m 16 Y s 1430
 1586 m 31 Y s 1468 1601 m 16 Y s 1507 1601 m 16 Y s 1545 1601 m 16 Y s 1584 1601 m 16 Y s 1622 1586 m 31 Y s 1661 1601 m 16 Y s 1699 1601 m 16 Y s 1738 1601 m 16 Y s 1776 1601 m 16 Y s 1815 1586 m 31 Y s 1853 1601 m 16 Y s 1892 1601 m 16 Y s 1930
 1601 m 16 Y s 1969 1601 m 16 Y s 2007 1586 m 31 Y s 2046 1601 m 16 Y s 2084 1601 m 16 Y s 2123 1601 m 16 Y s 2161 1601 m 16 Y s 2200 1586 m 31 Y s 2200 1586 m 31 Y s 274 469 m 1148 Y s 337 469 m -63 X s 306 513 m -32 X s 306 557 m -32 X s 306 602 m
 -32 X s 337 646 m -63 X s 306 690 m -32 X s 306 734 m -32 X s 306 778 m -32 X s 337 822 m -63 X s 306 867 m -32 X s 306 911 m -32 X s 306 955 m -32 X s 337 999 m -63 X s 306 1043 m -32 X s 306 1087 m -32 X s 306 1131 m -32 X s 337 1176 m -63 X s 306
 1220 m -32 X s 306 1264 m -32 X s 306 1308 m -32 X s 337 1352 m -63 X s 306 1396 m -32 X s 306 1441 m -32 X s 306 1485 m -32 X s 337 1529 m -63 X s 337 1529 m -63 X s 306 1573 m -32 X s 2200 469 m 1148 Y s 2137 469 m 63 X s 2168 513 m 32 X s 2168
 557 m 32 X s 2168 602 m 32 X s 2137 646 m 63 X s 2168 690 m 32 X s 2168 734 m 32 X s 2168 778 m 32 X s 2137 822 m 63 X s 2168 867 m 32 X s 2168 911 m 32 X s 2168 955 m 32 X s 2137 999 m 63 X s 2168 1043 m 32 X s 2168 1087 m 32 X s 2168 1131 m 32 X s
 2137 1176 m 63 X s 2168 1220 m 32 X s 2168 1264 m 32 X s 2168 1308 m 32 X s 2137 1352 m 63 X s 2168 1396 m 32 X s 2168 1441 m 32 X s 2168 1485 m 32 X s 2137 1529 m 63 X s 2137 1529 m 63 X s 2168 1573 m 32 X s 1 1 1 c 2266 438 2 2 bf black 1 1 1 c
 black 1926 198 274 221 bl 1 1 1 c black 1926 198 274 221 bl 274 221 m 1926 X s 274 419 m 1926 X s 274 221 m 198 Y s[ 4 8] 0 sd 2200 221 m -1926 X s 2200 320 m -1926 X s 2200 419 m -1926 X s[  ] 0 sd 2200 221 m 198 Y s 6 lw 1 1 1 c 1 0.6 0.2 c black
 274 323 m 8 X s 305 323 m 8 X s 3 lw 1 0.6 0.2 c 293 323 m20 6 lw black 313 340 m 7 X s 343 340 m 8 X s 3 lw 1 0.6 0.2 c 332 340 m20 6 lw black 351 343 m 8 X s 382 343 m 8 X s 3 lw 1 0.6 0.2 c 370 343 m20 6 lw black 390 351 m 8 X s 420 351 m 8 X s 3
 lw 1 0.6 0.2 c 409 351 m20 6 lw black 428 353 m 8 X s 459 353 m 8 X s 3 lw 1 0.6 0.2 c 447 353 m20 6 lw black 467 353 m 8 X s 497 353 m 8 X s 3 lw 1 0.6 0.2 c 486 353 m20 6 lw black 505 344 m 8 X s 536 344 m 8 X s 3 lw 1 0.6 0.2 c 524 344 m20 6 lw
 black 544 333 m 8 X s 574 333 m 8 X s 3 lw 1 0.6 0.2 c 563 333 m20 6 lw black 582 326 m 8 X s 613 326 m 8 X s 3 lw 1 0.6 0.2 c 601 326 m20 6 lw black 621 371 m 8 X s 651 371 m 8 X s 3 lw 1 0.6 0.2 c 640 371 m20 6 lw black 698 379 m 8 X s 728 379 m 8
 X s 3 lw 1 0.6 0.2 c 717 379 m20 6 lw black 736 309 m 8 X s 767 309 m 8 X s 3 lw 1 0.6 0.2 c 756 309 m20 6 lw black 775 306 m 8 X s 805 306 m 8 X s 3 lw 1 0.6 0.2 c 794 306 m20 6 lw black 813 311 m 8 X s 844 311 m 8 X s 3 lw 1 0.6 0.2 c 833 311 m20
 6 lw black 852 313 m 8 X s 882 313 m 8 X s 3 lw 1 0.6 0.2 c 871 313 m20 6 lw black 890 307 m 8 X s 921 307 m 8 X s 3 lw 1 0.6 0.2 c 910 307 m20 6 lw black 929 293 m 8 X s 959 293 m 8 X s 3 lw 1 0.6 0.2 c 948 293 m20 6 lw black 967 289 m 8 X s 998
 289 m 8 X s 3 lw 1 0.6 0.2 c 987 289 m20 6 lw black 1006 293 m 8 X s 1037 293 m 7 X s 3 lw 1 0.6 0.2 c 1025 293 m20 6 lw black 1044 296 m 8 X s 1075 296 m 8 X s 3 lw 1 0.6 0.2 c 1064 296 m20 6 lw black 1083 298 m 8 X s 1114 298 m 7 X s 3 lw 1 0.6
 0.2 c 1102 298 m20 6 lw black 1121 311 m 8 X s 1152 311 m 8 X s 3 lw 1 0.6 0.2 c 1141 311 m20 6 lw black 1160 316 m 8 X s 1191 316 m 7 X s 3 lw 1 0.6 0.2 c 1179 316 m20 6 lw black 1198 318 m 8 X s 1229 318 m 8 X s 3 lw 1 0.6 0.2 c 1218 318 m20 6 lw
 black 1237 319 m 8 X s 1268 319 m 7 X s 3 lw 1 0.6 0.2 c 1256 319 m20 6 lw black 1275 311 m 8 X s 1306 311 m 8 X s 3 lw 1 0.6 0.2 c 1295 311 m20 6 lw black 1314 307 m 8 X s 1345 307 m 7 X s 3 lw 1 0.6 0.2 c 1333 307 m20 6 lw black 1352 308 m 8 X s
 1383 308 m 8 X s 3 lw 1 0.6 0.2 c 1372 308 m20 6 lw black 1391 296 m 8 X s 1422 296 m 8 X s 3 lw 1 0.6 0.2 c 1410 296 m20 6 lw black 1430 284 m 7 X s 1460 284 m 8 X s 3 lw 1 0.6 0.2 c 1449 284 m20 6 lw black 1468 286 m 8 X s 1499 286 m 8 X s 3 lw 1
 0.6 0.2 c 1487 286 m20 6 lw black 1507 294 m 7 X s 1537 294 m 8 X s 3 lw 1 0.6 0.2 c 1526 294 m20 6 lw black 1545 297 m 8 X s 1576 297 m 8 X s 3 lw 1 0.6 0.2 c 1564 297 m20 6 lw black 1584 305 m 7 X s 1614 305 m 8 X s 3 lw 1 0.6 0.2 c 1603 305 m20 6
 lw black 1622 315 m 8 X s 1653 315 m 8 X s 3 lw 1 0.6 0.2 c 1641 315 m20 6 lw black 1661 306 m 7 X s 1691 306 m 8 X s 3 lw 1 0.6 0.2 c 1680 306 m20 6 lw black 1699 307 m 8 X s 1730 307 m 8 X s 3 lw 1 0.6 0.2 c 1718 307 m20 6 lw black 1738 392 m 7 X
 s 1768 392 m 8 X s 3 lw 1 0.6 0.2 c 1757 392 m20 6 lw black 1815 357 m 7 X s 1845 357 m 8 X s 3 lw 1 0.6 0.2 c 1834 357 m20 6 lw black 1853 319 m 8 X s 1884 319 m 8 X s 3 lw 1 0.6 0.2 c 1872 319 m20 6 lw black 1892 324 m 8 X s 1922 324 m 8 X s 3 lw
 1 0.6 0.2 c 1911 324 m20 6 lw black 1930 339 m 8 X s 1961 339 m 8 X s 3 lw 1 0.6 0.2 c 1949 339 m20 6 lw black 1969 351 m 8 X s 1999 351 m 8 X s 3 lw 1 0.6 0.2 c 1988 351 m20 6 lw black 2007 351 m 8 X s 2038 351 m 8 X s 3 lw 1 0.6 0.2 c 2026 351 m20
 6 lw black 2046 349 m 8 X s 2076 349 m 8 X s 3 lw 1 0.6 0.2 c 2065 349 m20 6 lw black 2084 346 m 8 X s 2115 346 m 8 X s 3 lw 1 0.6 0.2 c 2103 346 m20 6 lw black 2123 338 m 8 X s 2153 338 m 8 X s 3 lw 1 0.6 0.2 c 2142 338 m20 6 lw black 2161 337 m 8
 X s 2192 337 m 8 X s 3 lw 1 0.6 0.2 c 2180 337 m20 6 lw black 3 lw 274 221 m 1926 X s 274 232 m -11 Y s 313 226 m -5 Y s 351 226 m -5 Y s 390 226 m -5 Y s 428 226 m -5 Y s 467 232 m -11 Y s 505 226 m -5 Y s 544 226 m -5 Y s 582 226 m -5 Y s 621 226
 m -5 Y s 659 232 m -11 Y s 698 226 m -5 Y s 736 226 m -5 Y s 775 226 m -5 Y s 813 226 m -5 Y s 852 232 m -11 Y s 890 226 m -5 Y s 929 226 m -5 Y s 967 226 m -5 Y s 1006 226 m -5 Y s 1044 232 m -11 Y s 1083 226 m -5 Y s 1121 226 m -5 Y s 1160 226 m
 -5 Y s 1198 226 m -5 Y s 1237 232 m -11 Y s 1275 226 m -5 Y s 1314 226 m -5 Y s 1352 226 m -5 Y s 1391 226 m -5 Y s 1430 232 m -11 Y s 1468 226 m -5 Y s 1507 226 m -5 Y s 1545 226 m -5 Y s 1584 226 m -5 Y s 1622 232 m -11 Y s 1661 226 m -5 Y s 1699
 226 m -5 Y s 1738 226 m -5 Y s 1776 226 m -5 Y s 1815 232 m -11 Y s 1853 226 m -5 Y s 1892 226 m -5 Y s 1930 226 m -5 Y s 1969 226 m -5 Y s 2007 232 m -11 Y s 2046 226 m -5 Y s 2084 226 m -5 Y s 2123 226 m -5 Y s 2161 226 m -5 Y s 2200 232 m -11 Y s
 2200 232 m -11 Y s
 gsave  2266 438 2 2 C 236.458 142.445 t 0 r /Helvetica findfont 83.0865 sf 0 0 m (2.5) show NC gr 
 gsave  2266 438 2 2 C 193.725 142.445 t 0 r /Symbol findfont 83.0865 sf 0 0 m (-) show NC gr 
 gsave  2266 438 2 2 C 464.369 142.445 t 0 r /Helvetica findfont 83.0865 sf 0 0 m (2) show NC gr 
 gsave  2266 438 2 2 C 418.787 142.445 t 0 r /Symbol findfont 83.0865 sf 0 0 m (-) show NC gr 
 gsave  2266 438 2 2 C 621.058 142.445 t 0 r /Helvetica findfont 83.0865 sf 0 0 m (1.5) show NC gr 
 gsave  2266 438 2 2 C 578.325 142.445 t 0 r /Symbol findfont 83.0865 sf 0 0 m (-) show NC gr 
 gsave  2266 438 2 2 C 854.667 142.445 t 0 r /Helvetica findfont 83.0865 sf 0 0 m (1) show NC gr 
 gsave  2266 438 2 2 C 809.085 142.445 t 0 r /Symbol findfont 83.0865 sf 0 0 m (-) show NC gr 
 gsave  2266 438 2 2 C 1005.66 142.445 t 0 r /Helvetica findfont 83.0865 sf 0 0 m (0.5) show NC gr 
 gsave  2266 438 2 2 C 962.925 142.445 t 0 r /Symbol findfont 83.0865 sf 0 0 m (-) show NC gr 
 gsave  2266 438 2 2 C 1213.63 142.445 t 0 r /Helvetica findfont 83.0865 sf 0 0 m (0) show NC gr 
 gsave  2266 438 2 2 C 1370.32 142.445 t 0 r /Helvetica findfont 83.0865 sf 0 0 m (0.5) show NC gr 
 gsave  2266 438 2 2 C 1603.93 142.445 t 0 r /Helvetica findfont 83.0865 sf 0 0 m (1) show NC gr 
 gsave  2266 438 2 2 C 1754.92 142.445 t 0 r /Helvetica findfont 83.0865 sf 0 0 m (1.5) show NC gr 
 gsave  2266 438 2 2 C 1982.83 142.445 t 0 r /Helvetica findfont 83.0865 sf 0 0 m (2) show NC gr 
 gsave  2266 438 2 2 C 2142.37 142.445 t 0 r /Helvetica findfont 83.0865 sf 0 0 m (2.5) show NC gr 
 gsave  2266 438 2 2 C 2125.27 25.64 t 0 r /Helvetica findfont 54.436 sf 0 0 m (tau) show NC gr 
 gsave  2266 438 2 2 C 2079.69 68.3734 t 0 r /Symbol findfont 83.0865 sf 0 0 m (h) show NC gr  274 419 m 1926 X s 274 408 m 11 Y s 313 413 m 6 Y s 351 413 m 6 Y s 390 413 m 6 Y s 428 413 m 6 Y s 467 408 m 11 Y s 505 413 m 6 Y s 544 413 m 6 Y s 582
 413 m 6 Y s 621 413 m 6 Y s 659 408 m 11 Y s 698 413 m 6 Y s 736 413 m 6 Y s 775 413 m 6 Y s 813 413 m 6 Y s 852 408 m 11 Y s 890 413 m 6 Y s 929 413 m 6 Y s 967 413 m 6 Y s 1006 413 m 6 Y s 1044 408 m 11 Y s 1083 413 m 6 Y s 1121 413 m 6 Y s 1160
 413 m 6 Y s 1198 413 m 6 Y s 1237 408 m 11 Y s 1275 413 m 6 Y s 1314 413 m 6 Y s 1352 413 m 6 Y s 1391 413 m 6 Y s 1430 408 m 11 Y s 1468 413 m 6 Y s 1507 413 m 6 Y s 1545 413 m 6 Y s 1584 413 m 6 Y s 1622 408 m 11 Y s 1661 413 m 6 Y s 1699 413 m 6
 Y s 1738 413 m 6 Y s 1776 413 m 6 Y s 1815 408 m 11 Y s 1853 413 m 6 Y s 1892 413 m 6 Y s 1930 413 m 6 Y s 1969 413 m 6 Y s 2007 408 m 11 Y s 2046 413 m 6 Y s 2084 413 m 6 Y s 2123 413 m 6 Y s 2161 413 m 6 Y s 2200 408 m 11 Y s 2200 408 m 11 Y s 274
 221 m 198 Y s 305 221 m -31 X s 289 241 m -15 X s 289 260 m -15 X s 289 280 m -15 X s 289 300 m -15 X s 305 320 m -31 X s 289 340 m -15 X s 289 359 m -15 X s 289 379 m -15 X s 289 399 m -15 X s 305 419 m -31 X s
 gsave  2266 438 2 2 C 128.2 193.725 t 0 r /Helvetica findfont 74.4914 sf 0 0 m (0.9) show NC gr 
 gsave  2266 438 2 2 C 199.422 293.436 t 0 r /Helvetica findfont 74.4914 sf 0 0 m (1) show NC gr 
 gsave  2266 438 2 2 C 139.596 390.298 t 0 r /Helvetica findfont 74.4914 sf 0 0 m (1.1) show NC gr 
 gsave  2266 438 2 2 C 71.2223 25.64 t 90 r /Helvetica findfont 60.1661 sf 0 0 m (PFlow/LCTopo) show NC gr  2200 221 m 198 Y s 2169 221 m 31 X s 2184 241 m 16 X s 2184 260 m 16 X s 2184 280 m 16 X s 2184 300 m 16 X s 2169 320 m 31 X s 2184 340 m 16 X
 s 2184 359 m 16 X s 2184 379 m 16 X s 2184 399 m 16 X s 2169 419 m 31 X s 1 0 0 c 6 lw black 1 0 0 c 679 221 m 49 Y s 688 237 m -9 -16 d -10 16 d s black 1 0 0 c 1795 221 m 49 Y s 1805 237 m -10 -16 d -9 16 d s 0.6 0.2 0.4 c black 0.6 0.2 0.4 c 3 lw
 black 1 lw << /PatternType 1 /PaintType 2 /TilingType 1 /BBox [ 0 0 96 4 ] /XStep 96 /YStep 4 /PaintProc { begin gsave [1 3] 0 sd 2 4 m 98 4 l s 0 3 m 96 3 l s 2 2 m 98 2 l s 0 1 m 96 1 l s gr end } >> [ 3.0 0 0 3.0 0 0 ] makepattern /P02 exch def
 /cs {[/Pattern /DeviceRGB] setcolorspace} def /FA {f [/DeviceRGB] setcolorspace} def cs 0 0 0 P02 setcolor 274 312 m 39 X 15 Y -39 X FA 6 lw 3 lw 0.6 0.2 0.4 c /w 2 def /w2 {w 2 div} def /w3 {w 3 div} def 293 320 m20 6 lw 3 lw black cs 0 0 0 P02
 setcolor 313 313 m 38 X 14 Y -38 X FA 6 lw 3 lw 0.6 0.2 0.4 c 332 320 m20 6 lw 3 lw black cs 0 0 0 P02 setcolor 351 313 m 39 X 14 Y -39 X FA 6 lw 3 lw 0.6 0.2 0.4 c 370 320 m20 6 lw 3 lw black cs 0 0 0 P02 setcolor 390 313 m 38 X 13 Y -38 X FA 6 lw
 3 lw 0.6 0.2 0.4 c 409 320 m20 6 lw 3 lw black cs 0 0 0 P02 setcolor 428 313 m 39 X 13 Y -39 X FA 6 lw 3 lw 0.6 0.2 0.4 c 447 320 m20 6 lw 3 lw black cs 0 0 0 P02 setcolor 467 313 m 38 X 13 Y -38 X FA 6 lw 3 lw 0.6 0.2 0.4 c 486 320 m20 6 lw 3 lw
 black cs 0 0 0 P02 setcolor 505 313 m 39 X 13 Y -39 X FA 6 lw 3 lw 0.6 0.2 0.4 c 524 320 m20 6 lw 3 lw black cs 0 0 0 P02 setcolor 544 313 m 38 X 13 Y -38 X FA 6 lw 3 lw 0.6 0.2 0.4 c 563 320 m20 6 lw 3 lw black cs 0 0 0 P02 setcolor 582 313 m 39 X
 13 Y -39 X FA 6 lw 3 lw 0.6 0.2 0.4 c 601 320 m20 6 lw 3 lw black cs 0 0 0 P02 setcolor 621 312 m 38 X 15 Y -38 X FA 6 lw 3 lw 0.6 0.2 0.4 c 640 320 m20 6 lw 3 lw black cs 0 0 0 P02 setcolor 698 312 m 38 X 16 Y -38 X FA 6 lw 3 lw 0.6 0.2 0.4 c 717
 320 m20 6 lw 3 lw black cs 0 0 0 P02 setcolor 736 314 m 39 X 12 Y -39 X FA 6 lw 3 lw 0.6 0.2 0.4 c 756 320 m20 6 lw 3 lw black cs 0 0 0 P02 setcolor 775 314 m 38 X 12 Y -38 X FA 6 lw 3 lw 0.6 0.2 0.4 c 794 320 m20 6 lw 3 lw black cs 0 0 0 P02
 setcolor 813 314 m 39 X 12 Y -39 X FA 6 lw 3 lw 0.6 0.2 0.4 c 833 320 m20 6 lw 3 lw black cs 0 0 0 P02 setcolor 852 314 m 38 X 12 Y -38 X FA 6 lw 3 lw 0.6 0.2 0.4 c 871 320 m20 6 lw 3 lw black cs 0 0 0 P02 setcolor 890 314 m 39 X 12 Y -39 X FA 6 lw
 3 lw 0.6 0.2 0.4 c 910 320 m20 6 lw 3 lw black cs 0 0 0 P02 setcolor 929 314 m 38 X 12 Y -38 X FA 6 lw 3 lw 0.6 0.2 0.4 c 948 320 m20 6 lw 3 lw black cs 0 0 0 P02 setcolor 967 314 m 39 X 12 Y -39 X FA 6 lw 3 lw 0.6 0.2 0.4 c 987 320 m20 6 lw 3 lw
 black cs 0 0 0 P02 setcolor 1006 314 m 38 X 12 Y -38 X FA 6 lw 3 lw 0.6 0.2 0.4 c 1025 320 m20 6 lw 3 lw black cs 0 0 0 P02 setcolor 1044 314 m 39 X 12 Y -39 X FA 6 lw 3 lw 0.6 0.2 0.4 c 1064 320 m20 6 lw 3 lw black cs 0 0 0 P02 setcolor 1083 314 m
 38 X 12 Y -38 X FA 6 lw 3 lw 0.6 0.2 0.4 c 1102 320 m20 6 lw 3 lw black cs 0 0 0 P02 setcolor 1121 314 m 39 X 12 Y -39 X FA 6 lw 3 lw 0.6 0.2 0.4 c 1141 320 m20 6 lw 3 lw black cs 0 0 0 P02 setcolor 1160 314 m 38 X 12 Y -38 X FA 6 lw 3 lw 0.6 0.2
 0.4 c 1179 320 m20 6 lw 3 lw black cs 0 0 0 P02 setcolor 1198 314 m 39 X 12 Y -39 X FA 6 lw 3 lw 0.6 0.2 0.4 c 1218 320 m20 6 lw 3 lw black cs 0 0 0 P02 setcolor 1237 314 m 38 X 12 Y -38 X FA 6 lw 3 lw 0.6 0.2 0.4 c 1256 320 m20 6 lw 3 lw black cs 0
 0 0 P02 setcolor 1275 314 m 39 X 12 Y -39 X FA 6 lw 3 lw 0.6 0.2 0.4 c 1295 320 m20 6 lw 3 lw black cs 0 0 0 P02 setcolor 1314 314 m 38 X 12 Y -38 X FA 6 lw 3 lw 0.6 0.2 0.4 c 1333 320 m20 6 lw 3 lw black cs 0 0 0 P02 setcolor 1352 314 m 39 X 12 Y
 -39 X FA 6 lw 3 lw 0.6 0.2 0.4 c 1372 320 m20 6 lw 3 lw black cs 0 0 0 P02 setcolor 1391 314 m 39 X 12 Y -39 X FA 6 lw 3 lw 0.6 0.2 0.4 c 1410 320 m20 6 lw 3 lw black cs 0 0 0 P02 setcolor 1430 314 m 38 X 12 Y -38 X FA 6 lw 3 lw 0.6 0.2 0.4 c 1449
 320 m20 6 lw 3 lw black cs 0 0 0 P02 setcolor 1468 314 m 39 X 12 Y -39 X FA 6 lw 3 lw 0.6 0.2 0.4 c 1487 320 m20 6 lw 3 lw black cs 0 0 0 P02 setcolor 1507 314 m 38 X 12 Y -38 X FA 6 lw 3 lw 0.6 0.2 0.4 c 1526 320 m20 6 lw 3 lw black cs 0 0 0 P02
 setcolor 1545 314 m 39 X 12 Y -39 X FA 6 lw 3 lw 0.6 0.2 0.4 c 1564 320 m20 6 lw 3 lw black cs 0 0 0 P02 setcolor 1584 314 m 38 X 12 Y -38 X FA 6 lw 3 lw 0.6 0.2 0.4 c 1603 320 m20 6 lw 3 lw black cs 0 0 0 P02 setcolor 1622 314 m 39 X 12 Y -39 X FA
 6 lw 3 lw 0.6 0.2 0.4 c 1641 320 m20 6 lw 3 lw black cs 0 0 0 P02 setcolor 1661 314 m 38 X 12 Y -38 X FA 6 lw 3 lw 0.6 0.2 0.4 c 1680 320 m20 6 lw 3 lw black cs 0 0 0 P02 setcolor 1699 314 m 39 X 12 Y -39 X FA 6 lw 3 lw 0.6 0.2 0.4 c 1718 320 m20 6
 lw 3 lw black cs 0 0 0 P02 setcolor 1738 312 m 38 X 16 Y -38 X FA 6 lw 3 lw 0.6 0.2 0.4 c 1757 320 m20 6 lw 3 lw black cs 0 0 0 P02 setcolor 1815 313 m 38 X 14 Y -38 X FA 6 lw 3 lw 0.6 0.2 0.4 c 1834 320 m20 6 lw 3 lw black cs 0 0 0 P02 setcolor
 1853 313 m 39 X 13 Y -39 X FA 6 lw 3 lw 0.6 0.2 0.4 c 1872 320 m20 6 lw 3 lw black cs 0 0 0 P02 setcolor 1892 313 m 38 X 13 Y -38 X FA 6 lw 3 lw 0.6 0.2 0.4 c 1911 320 m20 6 lw 3 lw black cs 0 0 0 P02 setcolor 1930 313 m 39 X 13 Y -39 X FA 6 lw 3 lw
 0.6 0.2 0.4 c 1949 320 m20 6 lw 3 lw black cs 0 0 0 P02 setcolor 1969 313 m 38 X 13 Y -38 X FA 6 lw 3 lw 0.6 0.2 0.4 c 1988 320 m20 6 lw 3 lw black cs 0 0 0 P02 setcolor 2007 313 m 39 X 13 Y -39 X FA 6 lw 3 lw 0.6 0.2 0.4 c 2026 320 m20 6 lw 3 lw
 black cs 0 0 0 P02 setcolor 2046 313 m 38 X 13 Y -38 X FA 6 lw 3 lw 0.6 0.2 0.4 c 2065 320 m20 6 lw 3 lw black cs 0 0 0 P02 setcolor 2084 313 m 39 X 14 Y -39 X FA 6 lw 3 lw 0.6 0.2 0.4 c 2103 320 m20 6 lw 3 lw black cs 0 0 0 P02 setcolor 2123 313 m
 38 X 14 Y -38 X FA 6 lw 3 lw 0.6 0.2 0.4 c 2142 320 m20 6 lw 3 lw black cs 0 0 0 P02 setcolor 2161 312 m 39 X 15 Y -39 X FA 6 lw 3 lw 0.6 0.2 0.4 c 2180 320 m20 6 lw
 gr  gr showpage
end
%%EOF
