%!PS-Adobe-2.0 EPSF-2.0
%%BoundingBox:  0 0 567 407
%%Title: Truth_taupt.eps: Truth_taupt
%%Creator: ROOT Version 6.18/04
%%CreationDate: Mon Sep  7 21:25:02 2020
%%DocumentNeededResources: ProcSet (FontSetInit)
%%EndComments
%%BeginProlog
80 dict begin
/s {stroke} def /l {lineto} def /m {moveto} def /t {translate} def
/r {rotate} def /rl {roll}  def /R {repeat} def
/d {rlineto} def /rm {rmoveto} def /gr {grestore} def /f {eofill} def
/c {setrgbcolor} def /black {0 setgray} def /sd {setdash} def
/cl {closepath} def /sf {scalefont setfont} def /lw {setlinewidth} def
/box {m dup 0 exch d exch 0 d 0 exch neg d cl} def
/NC{systemdict begin initclip end}def/C{NC box clip newpath}def
/bl {box s} def /bf {gsave box gsave f grestore 1 lw [] 0 sd s grestore} def /Y { 0 exch d} def /X { 0 d} def 
/K {{pop pop 0 moveto} exch kshow} bind def
/ita {/ang 15 def gsave [1 0 ang dup sin exch cos div 1 0 0] concat} def 
/mp {newpath /y exch def /x exch def} def
/side {[w .77 mul w .23 mul] .385 w mul sd w 0 l currentpoint t -144 r} def
/mr {mp x y w2 0 360 arc} def /m24 {mr s} def /m20 {mr f} def
/mb {mp x y w2 add m w2 neg 0 d 0 w neg d w 0 d 0 w d cl} def
/mt {mp x y w2 add m w2 neg w neg d w 0 d cl} def
/w4 {w 4 div} def
/w6 {w 6 div} def
/w8 {w 8 div} def
/m21 {mb f} def /m25 {mb s} def /m22 {mt f} def /m26{mt s} def
/m23 {mp x y w2 sub m w2 w d w neg 0 d cl f} def
/m27 {mp x y w2 add m w3 neg w2 neg d w3 w2 neg d w3 w2 d cl s} def
/m28 {mp x w2 sub y w2 sub w3 add m w3 0 d  0 w3 neg d w3 0 d 0 w3 d w3 0 d  0 w3 d w3 neg 0 d 0 w3 d w3 neg 0 d 0 w3 neg d w3 neg 0 d cl s } def
/m29 {mp gsave x w2 sub y w2 add w3 sub m currentpoint t 4 {side} repeat cl fill gr} def
/m30 {mp gsave x w2 sub y w2 add w3 sub m currentpoint t 4 {side} repeat cl s gr} def
/m31 {mp x y w2 sub m 0 w d x w2 sub y m w 0 d x w2 sub y w2 add m w w neg d x w2 sub y w2 sub m w w d s} def
/m32 {mp x y w2 sub m w2 w d w neg 0 d cl s} def
/m33 {mp x y w2 add m w3 neg w2 neg d w3 w2 neg d w3 w2 d cl f} def
/m34 {mp x w2 sub y w2 sub w3 add m w3 0 d  0 w3 neg d w3 0 d 0 w3 d w3 0 d  0 w3 d w3 neg 0 d 0 w3 d w3 neg 0 d 0 w3 neg d w3 neg 0 d cl f } def
/m35 {mp x y w2 add m w2 neg w2 neg d w2 w2 neg d w2 w2 d w2 neg w2 d x y w2 sub m 0 w d x w2 sub y m w 0 d s} def
/m36 {mb x w2 sub y w2 add m w w neg d x w2 sub y w2 sub m w w d s} def
/m37 {mp x y m w4 neg w2 d w4 neg w2 neg d w2 0 d  w4 neg w2 neg d w2 0 d w4 neg w2 d w2 0 d w4 neg w2 d w4 neg w2 neg d cl s} def
/m38 {mp x w4 sub y w2 add m w4 neg w4 neg d 0 w2 neg d w4 w4 neg d w2 0 d w4 w4 d 0 w2 d w4 neg w4 d w2 neg 0 d x y w2 sub m 0 w d x w2 sub y m w 0 d cl s} def
/m39 {mp x y m w4 neg w2 d w4 neg w2 neg d w2 0 d  w4 neg w2 neg d w2 0 d w4 neg w2 d w2 0 d w4 neg w2 d w4 neg w2 neg d cl f} def
/m40 {mp x y m w4 w2 d w4 w4 neg d w2 neg w4 neg d w2 w4 neg d w4 neg w4 neg d w4 neg w2 d w4 neg w2 neg d w4 neg w4 d w2 w4 d w2 neg w4 d w4 w4 d w4 w2 neg d cl s} def
/m41 {mp x y m w4 w2 d w4 w4 neg d w2 neg w4 neg d w2 w4 neg d w4 neg w4 neg d w4 neg w2 d w4 neg w2 neg d w4 neg w4 d w2 w4 d w2 neg w4 d w4 w4 d w4 w2 neg d cl f} def
/m42 {mp x y w2 add m w8 neg w2 -3 4 div mul d w2 -3 4 div mul w8 neg d w2 3 4 div mul w8 neg d w8 w2 -3 4 div mul d w8 w2 3 4 div mul d w2 3 4 div mul w8 d w2 -3 4 div mul w8 d w8 neg w2 3 4 div mul d cl s} def
/m43 {mp x y w2 add m w8 neg w2 -3 4 div mul d w2 -3 4 div mul w8 neg d w2 3 4 div mul w8 neg d w8 w2 -3 4 div mul d w8 w2 3 4 div mul d w2 3 4 div mul w8 d w2 -3 4 div mul w8 d w8 neg w2 3 4 div mul d cl f} def
/m44 {mp x y m w6 neg w2 d w2 2 3 div mul 0 d w6 neg w2 neg d w2 w6 d 0 w2 -2 3 div mul d w2 neg w6 d w6 w2 neg d w2 -2 3 div mul 0 d w6 w2 d w2 neg w6 neg d 0 w2 2 3 div mul d w2 w6 neg d cl s} def
/m45 {mp x y m w6 neg w2 d w2 2 3 div mul 0 d w6 neg w2 neg d w2 w6 d 0 w2 -2 3 div mul d w2 neg w6 d w6 w2 neg d w2 -2 3 div mul 0 d w6 w2 d w2 neg w6 neg d 0 w2 2 3 div mul d w2 w6 neg d cl f} def
/m46 {mp x y w4 add m w4 neg w4 d w4 neg w4 neg d  w4 w4 neg d w4 neg w4 neg d w4 w4 neg d w4 w4 d w4 w4 neg d w4 w4 d w4 neg w4 d w4 w4 d w4 neg w4 d w4 neg w4 neg d cl s} def
/m47 {mp x y w4 add m w4 neg w4 d w4 neg w4 neg d w4 w4 neg d w4 neg w4 neg d  w4 w4 neg d w4 w4 d w4 w4 neg d w4 w4 d w4 neg w4 d w4 w4 d w4 neg w4 d w4 neg w4 neg d cl f} def
/m48 {mp x y w4 add m w4 neg w4 d w4 neg w4 neg d w4 w4 neg d  w4 neg w4 neg d w4 w4 neg d w4 w4 d w4 w4 neg d w4 w4 d w4 neg w4 d w4 w4 d w4 neg w4 d w4 neg w4 neg d  w4 w4 neg d w4 neg w4 neg d w4 neg w4 d w4 w4 d cl f} def
/m49 {mp x w2 sub w3 add y w2 sub w3 add m  0 w3 neg d w3 0 d 0 w3 d w3 0 d 0 w3 d w3 neg 0 d 0 w3 d w3 neg 0 d 0 w3 neg d w3 neg 0 d 0 w3 neg d w3 0 d 0 w3 d w3 0 d 0 w3 neg d w3 neg 0 d cl f } def
/m2 {mp x y w2 sub m 0 w d x w2 sub y m w 0 d s} def
/m5 {mp x w2 sub y w2 sub m w w d x w2 sub y w2 add m w w neg d s} def
%%IncludeResource: ProcSet (FontSetInit)
%%IncludeResource: font Times-Roman
%%IncludeResource: font Times-Italic
%%IncludeResource: font Times-Bold
%%IncludeResource: font Times-BoldItalic
%%IncludeResource: font Helvetica
%%IncludeResource: font Helvetica-Oblique
%%IncludeResource: font Helvetica-Bold
%%IncludeResource: font Helvetica-BoldOblique
%%IncludeResource: font Courier
%%IncludeResource: font Courier-Oblique
%%IncludeResource: font Courier-Bold
%%IncludeResource: font Courier-BoldOblique
%%IncludeResource: font Symbol
%%IncludeResource: font ZapfDingbats
/reEncode {exch findfont dup length dict begin {1 index /FID eq  {pop pop} {def} ifelse } forall /Encoding exch def currentdict end dup /FontName get exch definefont pop } def [/Times-Bold /Times-Italic /Times-BoldItalic /Helvetica /Helvetica-Oblique
 /Helvetica-Bold /Helvetica-BoldOblique /Courier /Courier-Oblique /Courier-Bold /Courier-BoldOblique /Times-Roman /AvantGarde-Book /AvantGarde-BookOblique /AvantGarde-Demi /AvantGarde-DemiOblique /Bookman-Demi /Bookman-DemiItalic /Bookman-Light
 /Bookman-LightItalic /Helvetica-Narrow /Helvetica-Narrow-Bold /Helvetica-Narrow-BoldOblique /Helvetica-Narrow-Oblique /NewCenturySchlbk-Roman /NewCenturySchlbk-Bold /NewCenturySchlbk-BoldItalic /NewCenturySchlbk-Italic /Palatino-Bold
 /Palatino-BoldItalic /Palatino-Italic /Palatino-Roman ] {ISOLatin1Encoding reEncode } forall
%%EndProlog
%%BeginSetup
%%EndSetup
newpath  gsave  .25 .25 scale  gsave  0 0 t black[  ] 0 sd 3 lw 1 1 1 c 2268 1630 0 0 bf black 1 1 1 c 2266 1239 2 391 bf black 1 1 1 c 1926 1148 274 469 bf black 1926 1148 274 469 bl 1 1 1 c 1926 1148 274 469 bf black 1926 1148 274 469 bl 0.6 0.2
 0.4 c 6 lw 1 1 1 c 0.6 0.2 0.4 c 274 499 m 64 X 7 Y 64 X 18 Y 65 X 24 Y 64 X 40 Y 64 X 47 Y 64 X 53 Y 64 X 67 Y 65 X 68 Y 64 X 71 Y 64 X 72 Y 64 X 63 Y 64 X 54 Y 65 X 51 Y 64 X 42 Y 64 X 34 Y 64 X 24 Y 64 X 23 Y 65 X 18 Y 64 X 12 Y 64 X 10 Y 64 X 8
 Y 64 X 7 Y 64 X 5 Y 65 X 3 Y 64 X 3 Y 64 X 2 Y 64 X 1 Y 64 X 2 Y 65 X 12 Y 64 X s black 3 lw 274 469 m 1926 X s 274 501 m -32 Y s 338 485 m -16 Y s 402 485 m -16 Y s 467 485 m -16 Y s 531 485 m -16 Y s 595 501 m -32 Y s 659 485 m -16 Y s 723 485 m
 -16 Y s 788 485 m -16 Y s 852 485 m -16 Y s 916 501 m -32 Y s 980 485 m -16 Y s 1044 485 m -16 Y s 1109 485 m -16 Y s 1173 485 m -16 Y s 1237 501 m -32 Y s 1301 485 m -16 Y s 1365 485 m -16 Y s 1430 485 m -16 Y s 1494 485 m -16 Y s 1558 501 m -32 Y
 s 1622 485 m -16 Y s 1686 485 m -16 Y s 1750 485 m -16 Y s 1815 485 m -16 Y s 1879 501 m -32 Y s 1943 485 m -16 Y s 2007 485 m -16 Y s 2071 485 m -16 Y s 2136 485 m -16 Y s 2200 501 m -32 Y s 274 1617 m 1926 X s 274 1586 m 31 Y s 338 1601 m 16 Y s
 402 1601 m 16 Y s 467 1601 m 16 Y s 531 1601 m 16 Y s 595 1586 m 31 Y s 659 1601 m 16 Y s 723 1601 m 16 Y s 788 1601 m 16 Y s 852 1601 m 16 Y s 916 1586 m 31 Y s 980 1601 m 16 Y s 1044 1601 m 16 Y s 1109 1601 m 16 Y s 1173 1601 m 16 Y s 1237 1586 m
 31 Y s 1301 1601 m 16 Y s 1365 1601 m 16 Y s 1430 1601 m 16 Y s 1494 1601 m 16 Y s 1558 1586 m 31 Y s 1622 1601 m 16 Y s 1686 1601 m 16 Y s 1750 1601 m 16 Y s 1815 1601 m 16 Y s 1879 1586 m 31 Y s 1943 1601 m 16 Y s 2007 1601 m 16 Y s 2071 1601 m 16
 Y s 2136 1601 m 16 Y s 2200 1586 m 31 Y s 274 469 m 1148 Y s 337 469 m -63 X s 306 513 m -32 X s 306 557 m -32 X s 306 602 m -32 X s 337 646 m -63 X s 306 690 m -32 X s 306 734 m -32 X s 306 778 m -32 X s 337 822 m -63 X s 306 867 m -32 X s 306 911
 m -32 X s 306 955 m -32 X s 337 999 m -63 X s 306 1043 m -32 X s 306 1087 m -32 X s 306 1131 m -32 X s 337 1176 m -63 X s 306 1220 m -32 X s 306 1264 m -32 X s 306 1308 m -32 X s 337 1352 m -63 X s 306 1396 m -32 X s 306 1441 m -32 X s 306 1485 m
 -32 X s 337 1529 m -63 X s 337 1529 m -63 X s 306 1573 m -32 X s
 gsave  2266 1239 2 391 C 219.365 441.578 t 0 r /Helvetica findfont 79.9013 sf 0 0 m (0) show NC gr 
 gsave  2266 1239 2 391 C 153.84 618.209 t 0 r /Helvetica findfont 79.9013 sf 0 0 m (0.2) show NC gr 
 gsave  2266 1239 2 391 C 153.84 794.84 t 0 r /Helvetica findfont 79.9013 sf 0 0 m (0.4) show NC gr 
 gsave  2266 1239 2 391 C 153.84 971.472 t 0 r /Helvetica findfont 79.9013 sf 0 0 m (0.6) show NC gr 
 gsave  2266 1239 2 391 C 153.84 1148.1 t 0 r /Helvetica findfont 79.9013 sf 0 0 m (0.8) show NC gr 
 gsave  2266 1239 2 391 C 233.609 1321.89 t 0 r /Helvetica findfont 79.9013 sf 0 0 m (1) show NC gr 
 gsave  2266 1239 2 391 C 153.84 1498.52 t 0 r /Helvetica findfont 79.9013 sf 0 0 m (1.2) show NC gr 
 gsave  2266 1239 2 391 C 65.5245 1076.88 t 90 r /Helvetica findfont 79.9013 sf 0 0 m (Reco efficiency) show NC gr  2200 469 m 1148 Y s 2137 469 m 63 X s 2168 513 m 32 X s 2168 557 m 32 X s 2168 602 m 32 X s 2137 646 m 63 X s 2168 690 m 32 X s 2168
 734 m 32 X s 2168 778 m 32 X s 2137 822 m 63 X s 2168 867 m 32 X s 2168 911 m 32 X s 2168 955 m 32 X s 2137 999 m 63 X s 2168 1043 m 32 X s 2168 1087 m 32 X s 2168 1131 m 32 X s 2137 1176 m 63 X s 2168 1220 m 32 X s 2168 1264 m 32 X s 2168 1308 m 32
 X s 2137 1352 m 63 X s 2168 1396 m 32 X s 2168 1441 m 32 X s 2168 1485 m 32 X s 2137 1529 m 63 X s 2137 1529 m 63 X s 2168 1573 m 32 X s 1 0.6 0.2 c 6 lw 1 1 1 c 1 0.6 0.2 c 274 484 m 64 X 8 Y 64 X 13 Y 65 X 19 Y 64 X 38 Y 64 X 50 Y 64 X 71 Y 64 X
 87 Y 65 X 91 Y 64 X 89 Y 64 X 71 Y 64 X 57 Y 64 X 46 Y 65 X 38 Y 64 X 29 Y 64 X 24 Y 64 X 13 Y 64 X 21 Y 65 X 13 Y 64 X 9 Y 64 X 9 Y 64 X 8 Y 64 X 5 Y 64 X 5 Y 65 X 4 Y 64 X 5 Y 64 X 2 Y 64 X 3 Y 64 X 3 Y 65 X 23 Y 64 X s 1 1 1 c 3 lw 838 173 1248
 1419 bf black
 gsave  2266 1239 2 391 C 1350.37 1489.97 t 0 r /Helvetica findfont 57.0723 sf 0 0 m (LCTopo) show NC gr  0.6 0.2 0.4 c 6 lw 1264 1506 m 73 X s 3 lw /w 28 def /w2 {w 2 div} def /w3 {w 3 div} def 1301 1506 m20 6 lw black
 gsave  2266 1239 2 391 C 1740.67 1484.27 t 0 r /Helvetica findfont 57.0723 sf 0 0 m (EMPFlow) show NC gr  1 0.6 0.2 c 1653 1506 m 73 X s 3 lw 1690 1506 m20 6 lw black 3 lw 274 469 m 1926 X s 274 501 m -32 Y s 338 485 m -16 Y s 402 485 m -16 Y s 467
 485 m -16 Y s 531 485 m -16 Y s 595 501 m -32 Y s 659 485 m -16 Y s 723 485 m -16 Y s 788 485 m -16 Y s 852 485 m -16 Y s 916 501 m -32 Y s 980 485 m -16 Y s 1044 485 m -16 Y s 1109 485 m -16 Y s 1173 485 m -16 Y s 1237 501 m -32 Y s 1301 485 m -16
 Y s 1365 485 m -16 Y s 1430 485 m -16 Y s 1494 485 m -16 Y s 1558 501 m -32 Y s 1622 485 m -16 Y s 1686 485 m -16 Y s 1750 485 m -16 Y s 1815 485 m -16 Y s 1879 501 m -32 Y s 1943 485 m -16 Y s 2007 485 m -16 Y s 2071 485 m -16 Y s 2136 485 m -16 Y
 s 2200 501 m -32 Y s 274 1617 m 1926 X s 274 1586 m 31 Y s 338 1601 m 16 Y s 402 1601 m 16 Y s 467 1601 m 16 Y s 531 1601 m 16 Y s 595 1586 m 31 Y s 659 1601 m 16 Y s 723 1601 m 16 Y s 788 1601 m 16 Y s 852 1601 m 16 Y s 916 1586 m 31 Y s 980 1601 m
 16 Y s 1044 1601 m 16 Y s 1109 1601 m 16 Y s 1173 1601 m 16 Y s 1237 1586 m 31 Y s 1301 1601 m 16 Y s 1365 1601 m 16 Y s 1430 1601 m 16 Y s 1494 1601 m 16 Y s 1558 1586 m 31 Y s 1622 1601 m 16 Y s 1686 1601 m 16 Y s 1750 1601 m 16 Y s 1815 1601 m 16
 Y s 1879 1586 m 31 Y s 1943 1601 m 16 Y s 2007 1601 m 16 Y s 2071 1601 m 16 Y s 2136 1601 m 16 Y s 2200 1586 m 31 Y s 274 469 m 1148 Y s 337 469 m -63 X s 306 513 m -32 X s 306 557 m -32 X s 306 602 m -32 X s 337 646 m -63 X s 306 690 m -32 X s 306
 734 m -32 X s 306 778 m -32 X s 337 822 m -63 X s 306 867 m -32 X s 306 911 m -32 X s 306 955 m -32 X s 337 999 m -63 X s 306 1043 m -32 X s 306 1087 m -32 X s 306 1131 m -32 X s 337 1176 m -63 X s 306 1220 m -32 X s 306 1264 m -32 X s 306 1308 m
 -32 X s 337 1352 m -63 X s 306 1396 m -32 X s 306 1441 m -32 X s 306 1485 m -32 X s 337 1529 m -63 X s 337 1529 m -63 X s 306 1573 m -32 X s 2200 469 m 1148 Y s 2137 469 m 63 X s 2168 513 m 32 X s 2168 557 m 32 X s 2168 602 m 32 X s 2137 646 m 63 X
 s 2168 690 m 32 X s 2168 734 m 32 X s 2168 778 m 32 X s 2137 822 m 63 X s 2168 867 m 32 X s 2168 911 m 32 X s 2168 955 m 32 X s 2137 999 m 63 X s 2168 1043 m 32 X s 2168 1087 m 32 X s 2168 1131 m 32 X s 2137 1176 m 63 X s 2168 1220 m 32 X s 2168
 1264 m 32 X s 2168 1308 m 32 X s 2137 1352 m 63 X s 2168 1396 m 32 X s 2168 1441 m 32 X s 2168 1485 m 32 X s 2137 1529 m 63 X s 2137 1529 m 63 X s 2168 1573 m 32 X s 1 1 1 c 2266 438 2 2 bf black 1 1 1 c black 1926 198 274 221 bl 1 1 1 c black 1926
 198 274 221 bl 274 221 m 1926 X s 274 419 m 1926 X s 274 221 m 198 Y s[ 4 8] 0 sd 2200 221 m -1926 X s 2200 320 m -1926 X s 2200 419 m -1926 X s 2200 419 m -1926 X s[  ] 0 sd 2200 221 m 198 Y s 6 lw 1 1 1 c 1 0.6 0.2 c black 595 250 m 21 X s 639 250
 m 20 X s 3 lw 1 0.6 0.2 c 627 250 m20 6 lw black 659 309 m 21 X s 703 309 m 20 X s 3 lw 1 0.6 0.2 c 691 309 m20 6 lw black 723 347 m 21 X s 767 347 m 21 X s 3 lw 1 0.6 0.2 c 756 347 m20 6 lw black 788 373 m 20 X s 831 373 m 21 X s 3 lw 1 0.6 0.2 c
 820 373 m20 6 lw black 852 385 m 21 X s 895 385 m 21 X s 3 lw 1 0.6 0.2 c 884 385 m20 6 lw black 916 375 m 21 X s 959 375 m 21 X s 3 lw 1 0.6 0.2 c 948 375 m20 6 lw black 980 364 m 21 X s 1024 364 m 20 X s 3 lw 1 0.6 0.2 c 1012 364 m20 6 lw black
 1044 353 m 21 X s 1088 353 m 21 X s 3 lw 1 0.6 0.2 c 1076 353 m20 6 lw black 1109 340 m 20 X s 1152 340 m 21 X s 3 lw 1 0.6 0.2 c 1141 340 m20 6 lw black 1173 330 m 20 X s 1216 330 m 21 X s 3 lw 1 0.6 0.2 c 1205 330 m20 6 lw black 1237 323 m 21 X s
 1280 323 m 21 X s 3 lw 1 0.6 0.2 c 1269 323 m20 6 lw black 1301 316 m 21 X s 1345 316 m 20 X s 3 lw 1 0.6 0.2 c 1333 316 m20 6 lw black 1365 315 m 21 X s 1409 315 m 21 X s 3 lw 1 0.6 0.2 c 1397 315 m20 6 lw black 1430 312 m 20 X s 1473 312 m 21 X s
 3 lw 1 0.6 0.2 c 1462 312 m20 6 lw black 1494 311 m 20 X s 1537 311 m 21 X s 3 lw 1 0.6 0.2 c 1526 311 m20 6 lw black 1558 310 m 21 X s 1601 310 m 21 X s 3 lw 1 0.6 0.2 c 1590 310 m20 6 lw black 1622 310 m 21 X s 1666 310 m 20 X s 3 lw 1 0.6 0.2 c
 1654 310 m20 6 lw black 1686 309 m 21 X s 1730 309 m 20 X s 3 lw 1 0.6 0.2 c 1718 309 m20 6 lw black 1750 308 m 21 X s 1794 308 m 21 X s 3 lw 1 0.6 0.2 c 1783 308 m20 6 lw black 1815 309 m 20 X s 1858 309 m 21 X s 3 lw 1 0.6 0.2 c 1847 309 m20 6 lw
 black 1879 311 m 21 X s 1922 311 m 21 X s 3 lw 1 0.6 0.2 c 1911 311 m20 6 lw black 1943 311 m 21 X s 1986 311 m 21 X s 3 lw 1 0.6 0.2 c 1975 311 m20 6 lw black 2007 312 m 21 X s 2051 312 m 20 X s 3 lw 1 0.6 0.2 c 2039 312 m20 6 lw black 2071 312 m
 21 X s 2115 312 m 21 X s 3 lw 1 0.6 0.2 c 2103 312 m20 6 lw black 2136 319 m 20 X s 2179 319 m 21 X s 3 lw 1 0.6 0.2 c 2168 319 m20 6 lw black 3 lw 274 221 m 1926 X s 274 232 m -11 Y s 338 226 m -5 Y s 402 226 m -5 Y s 467 226 m -5 Y s 531 226 m -5
 Y s 595 232 m -11 Y s 659 226 m -5 Y s 723 226 m -5 Y s 788 226 m -5 Y s 852 226 m -5 Y s 916 232 m -11 Y s 980 226 m -5 Y s 1044 226 m -5 Y s 1109 226 m -5 Y s 1173 226 m -5 Y s 1237 232 m -11 Y s 1301 226 m -5 Y s 1365 226 m -5 Y s 1430 226 m -5 Y
 s 1494 226 m -5 Y s 1558 232 m -11 Y s 1622 226 m -5 Y s 1686 226 m -5 Y s 1750 226 m -5 Y s 1815 226 m -5 Y s 1879 232 m -11 Y s 1943 226 m -5 Y s 2007 226 m -5 Y s 2071 226 m -5 Y s 2136 226 m -5 Y s 2200 232 m -11 Y s
 gsave  2266 438 2 2 C 250.702 142.445 t 0 r /Helvetica findfont 83.0865 sf 0 0 m (0) show NC gr 
 gsave  2266 438 2 2 C 569.778 142.445 t 0 r /Helvetica findfont 83.0865 sf 0 0 m (5) show NC gr 
 gsave  2266 438 2 2 C 868.911 142.445 t 0 r /Helvetica findfont 83.0865 sf 0 0 m (10) show NC gr 
 gsave  2266 438 2 2 C 1190.84 142.445 t 0 r /Helvetica findfont 83.0865 sf 0 0 m (15) show NC gr 
 gsave  2266 438 2 2 C 1509.91 142.445 t 0 r /Helvetica findfont 83.0865 sf 0 0 m (20) show NC gr 
 gsave  2266 438 2 2 C 1831.84 142.445 t 0 r /Helvetica findfont 83.0865 sf 0 0 m (25) show NC gr 
 gsave  2266 438 2 2 C 2153.76 142.445 t 0 r /Helvetica findfont 83.0865 sf 0 0 m (30) show NC gr 
 gsave  2266 438 2 2 C 1968.58 62.6756 t 0 r /Helvetica findfont 83.0865 sf 0 0 m ( [GeV]) show NC gr 
 gsave  2266 438 2 2 C 1752.07 17.0933 t 0 r /Helvetica findfont 54.436 sf 0 0 m (T,vis; tau) show NC gr 
 gsave  2266 438 2 2 C 1706.49 62.6756 t 0 r /Helvetica findfont 83.0865 sf 0 0 m (p) show NC gr  274 419 m 1926 X s 274 408 m 11 Y s 338 413 m 6 Y s 402 413 m 6 Y s 467 413 m 6 Y s 531 413 m 6 Y s 595 408 m 11 Y s 659 413 m 6 Y s 723 413 m 6 Y s 788
 413 m 6 Y s 852 413 m 6 Y s 916 408 m 11 Y s 980 413 m 6 Y s 1044 413 m 6 Y s 1109 413 m 6 Y s 1173 413 m 6 Y s 1237 408 m 11 Y s 1301 413 m 6 Y s 1365 413 m 6 Y s 1430 413 m 6 Y s 1494 413 m 6 Y s 1558 408 m 11 Y s 1622 413 m 6 Y s 1686 413 m 6 Y s
 1750 413 m 6 Y s 1815 413 m 6 Y s 1879 408 m 11 Y s 1943 413 m 6 Y s 2007 413 m 6 Y s 2071 413 m 6 Y s 2136 413 m 6 Y s 2200 408 m 11 Y s 274 221 m 198 Y s 305 221 m -31 X s 289 246 m -15 X s 289 270 m -15 X s 289 295 m -15 X s 305 320 m -31 X s 289
 345 m -15 X s 289 369 m -15 X s 289 394 m -15 X s 305 419 m -31 X s 305 419 m -31 X s
 gsave  2266 438 2 2 C 125.351 193.725 t 0 r /Helvetica findfont 74.4914 sf 0 0 m (0.8) show NC gr 
 gsave  2266 438 2 2 C 199.422 293.436 t 0 r /Helvetica findfont 74.4914 sf 0 0 m (1) show NC gr 
 gsave  2266 438 2 2 C 128.2 390.298 t 0 r /Helvetica findfont 74.4914 sf 0 0 m (1.2) show NC gr 
 gsave  2266 438 2 2 C 71.2223 25.64 t 90 r /Helvetica findfont 60.1661 sf 0 0 m (PFlow/LCTopo) show NC gr  2200 221 m 198 Y s 2169 221 m 31 X s 2184 246 m 16 X s 2184 270 m 16 X s 2184 295 m 16 X s 2169 320 m 31 X s 2184 345 m 16 X s 2184 369 m 16 X
 s 2184 394 m 16 X s 2169 419 m 31 X s 2169 419 m 31 X s 1 0 0 c 6 lw black 1 0 0 c 306 221 m 49 Y s 315 237 m -9 -16 d -9 16 d s black 1 0 0 c 370 221 m 49 Y s 380 237 m -10 -16 d -9 16 d s black 1 0 0 c 435 221 m 49 Y s 444 237 m -9 -16 d -10 16 d
 s black 1 0 0 c 499 221 m 49 Y s 508 237 m -9 -16 d -9 16 d s black 1 0 0 c 563 221 m 49 Y s 572 237 m -9 -16 d -9 16 d s 0.6 0.2 0.4 c black 0.6 0.2 0.4 c 3 lw black 1 lw << /PatternType 1 /PaintType 2 /TilingType 1 /BBox [ 0 0 96 4 ] /XStep 96
 /YStep 4 /PaintProc { begin gsave [1 3] 0 sd 2 4 m 98 4 l s 0 3 m 96 3 l s 2 2 m 98 2 l s 0 1 m 96 1 l s gr end } >> [ 3.0 0 0 3.0 0 0 ] makepattern /P02 exch def /cs {[/Pattern /DeviceRGB] setcolorspace} def /FA {f [/DeviceRGB] setcolorspace} def
 cs 0 0 0 P02 setcolor 274 294 m 64 X 51 Y -64 X FA 6 lw 3 lw 0.6 0.2 0.4 c /w 2 def /w2 {w 2 div} def /w3 {w 3 div} def 306 320 m20 6 lw 3 lw black cs 0 0 0 P02 setcolor 338 301 m 64 X 37 Y -64 X FA 6 lw 3 lw 0.6 0.2 0.4 c 370 320 m20 6 lw 3 lw
 black cs 0 0 0 P02 setcolor 402 306 m 65 X 28 Y -65 X FA 6 lw 3 lw 0.6 0.2 0.4 c 435 320 m20 6 lw 3 lw black cs 0 0 0 P02 setcolor 467 309 m 64 X 22 Y -64 X FA 6 lw 3 lw 0.6 0.2 0.4 c 499 320 m20 6 lw 3 lw black cs 0 0 0 P02 setcolor 531 311 m 64 X
 17 Y -64 X FA 6 lw 3 lw 0.6 0.2 0.4 c 563 320 m20 6 lw 3 lw black cs 0 0 0 P02 setcolor 595 313 m 64 X 14 Y -64 X FA 6 lw 3 lw 0.6 0.2 0.4 c 627 320 m20 6 lw 3 lw black cs 0 0 0 P02 setcolor 659 314 m 64 X 12 Y -64 X FA 6 lw 3 lw 0.6 0.2 0.4 c 691
 320 m20 6 lw 3 lw black cs 0 0 0 P02 setcolor 723 315 m 65 X 10 Y -65 X FA 6 lw 3 lw 0.6 0.2 0.4 c 756 320 m20 6 lw 3 lw black cs 0 0 0 P02 setcolor 788 315 m 64 X 9 Y -64 X FA 6 lw 3 lw 0.6 0.2 0.4 c 820 320 m20 6 lw 3 lw black cs 0 0 0 P02
 setcolor 852 316 m 64 X 8 Y -64 X FA 6 lw 3 lw 0.6 0.2 0.4 c 884 320 m20 6 lw 3 lw black cs 0 0 0 P02 setcolor 916 316 m 64 X 8 Y -64 X FA 6 lw 3 lw 0.6 0.2 0.4 c 948 320 m20 6 lw 3 lw black cs 0 0 0 P02 setcolor 980 316 m 64 X 7 Y -64 X FA 6 lw 3
 lw 0.6 0.2 0.4 c 1012 320 m20 6 lw 3 lw black cs 0 0 0 P02 setcolor 1044 316 m 65 X 7 Y -65 X FA 6 lw 3 lw 0.6 0.2 0.4 c 1076 320 m20 6 lw 3 lw black cs 0 0 0 P02 setcolor 1109 316 m 64 X 7 Y -64 X FA 6 lw 3 lw 0.6 0.2 0.4 c 1141 320 m20 6 lw 3 lw
 black cs 0 0 0 P02 setcolor 1173 316 m 64 X 7 Y -64 X FA 6 lw 3 lw 0.6 0.2 0.4 c 1205 320 m20 6 lw 3 lw black cs 0 0 0 P02 setcolor 1237 316 m 64 X 7 Y -64 X FA 6 lw 3 lw 0.6 0.2 0.4 c 1269 320 m20 6 lw 3 lw black cs 0 0 0 P02 setcolor 1301 317 m 64
 X 6 Y -64 X FA 6 lw 3 lw 0.6 0.2 0.4 c 1333 320 m20 6 lw 3 lw black cs 0 0 0 P02 setcolor 1365 317 m 65 X 6 Y -65 X FA 6 lw 3 lw 0.6 0.2 0.4 c 1397 320 m20 6 lw 3 lw black cs 0 0 0 P02 setcolor 1430 317 m 64 X 6 Y -64 X FA 6 lw 3 lw 0.6 0.2 0.4 c
 1462 320 m20 6 lw 3 lw black cs 0 0 0 P02 setcolor 1494 317 m 64 X 6 Y -64 X FA 6 lw 3 lw 0.6 0.2 0.4 c 1526 320 m20 6 lw 3 lw black cs 0 0 0 P02 setcolor 1558 317 m 64 X 6 Y -64 X FA 6 lw 3 lw 0.6 0.2 0.4 c 1590 320 m20 6 lw 3 lw black cs 0 0 0 P02
 setcolor 1622 317 m 64 X 6 Y -64 X FA 6 lw 3 lw 0.6 0.2 0.4 c 1654 320 m20 6 lw 3 lw black cs 0 0 0 P02 setcolor 1686 316 m 64 X 7 Y -64 X FA 6 lw 3 lw 0.6 0.2 0.4 c 1718 320 m20 6 lw 3 lw black cs 0 0 0 P02 setcolor 1750 316 m 65 X 7 Y -65 X FA 6
 lw 3 lw 0.6 0.2 0.4 c 1783 320 m20 6 lw 3 lw black cs 0 0 0 P02 setcolor 1815 316 m 64 X 7 Y -64 X FA 6 lw 3 lw 0.6 0.2 0.4 c 1847 320 m20 6 lw 3 lw black cs 0 0 0 P02 setcolor 1879 316 m 64 X 7 Y -64 X FA 6 lw 3 lw 0.6 0.2 0.4 c 1911 320 m20 6 lw 3
 lw black cs 0 0 0 P02 setcolor 1943 316 m 64 X 7 Y -64 X FA 6 lw 3 lw 0.6 0.2 0.4 c 1975 320 m20 6 lw 3 lw black cs 0 0 0 P02 setcolor 2007 316 m 64 X 7 Y -64 X FA 6 lw 3 lw 0.6 0.2 0.4 c 2039 320 m20 6 lw 3 lw black cs 0 0 0 P02 setcolor 2071 316 m
 65 X 7 Y -65 X FA 6 lw 3 lw 0.6 0.2 0.4 c 2103 320 m20 6 lw 3 lw black cs 0 0 0 P02 setcolor 2136 319 m 64 X 1 Y -64 X FA 6 lw 3 lw 0.6 0.2 0.4 c 2168 320 m20 6 lw
 gr  gr showpage
end
%%EOF
